﻿
DisplayName "ウンディーネの泉 B3F"



EVENT   1
 PAGE   1
  0()



EVENT   2
 PAGE   1
  0()



EVENT   3
 PAGE   1
  0()



EVENT   4
 PAGE   1
  0()



EVENT   5
 PAGE   1
  0()



EVENT   6
 PAGE   1
  0()



EVENT   7
 PAGE   1
  0()



EVENT   8
 PAGE   1
  0()



EVENT   9
 PAGE   1
  0()



EVENT   10
 PAGE   1
  0()



EVENT   11
 PAGE   1
  0()



EVENT   12
 PAGE   1
  0()



EVENT   13
 PAGE   1
  0()



EVENT   14
 PAGE   1
  0()



EVENT   15
 PAGE   1
  0()



EVENT   16
 PAGE   1
  0()



EVENT   17
 PAGE   1
  0()



EVENT   18
 PAGE   1
  0()



EVENT   19
 PAGE   1
  0()



EVENT   20
 PAGE   1
  0()



EVENT   21
 PAGE   1
  0()



EVENT   22
 PAGE   1
  0()



EVENT   23
 PAGE   1
  0()



EVENT   24
 PAGE   1
  0()



EVENT   25
 PAGE   1
  0()



EVENT   26
 PAGE   1
  0()



EVENT   27
 PAGE   1
  0()



EVENT   28
 PAGE   1
  0()



EVENT   29
 PAGE   1
  0()



EVENT   30
 PAGE   1
  0()



EVENT   31
 PAGE   1
  0()



EVENT   32
 PAGE   1
  0()



EVENT   33
 PAGE   1
  0()



EVENT   34
 PAGE   1
  0()



EVENT   35
 PAGE   1
  0()



EVENT   36
 PAGE   1
  0()



EVENT   37
 PAGE   1
  0()



EVENT   38
 PAGE   1
  0()



EVENT   39
 PAGE   1
  0()



EVENT   40
 PAGE   1
  0()



EVENT   41
 PAGE   1
  0()



EVENT   42
 PAGE   1
  0()



EVENT   43
 PAGE   1
  0()



EVENT   44
 PAGE   1
  0()



EVENT   45
 PAGE   1
  0()



EVENT   46
 PAGE   1
  0()



EVENT   47
 PAGE   1
  0()



EVENT   48
 PAGE   1
  0()



EVENT   49
 PAGE   1
  0()



EVENT   50
 PAGE   1
  0()



EVENT   51
 PAGE   1
  0()



EVENT   52
 PAGE   1
  0()



EVENT   53
 PAGE   1
  0()



EVENT   54
 PAGE   1
  0()



EVENT   55
 PAGE   1
  0()



EVENT   56
 PAGE   1
  0()



EVENT   57
 PAGE   1
  0()



EVENT   58
 PAGE   1
  0()



EVENT   59
 PAGE   1
  0()



EVENT   60
 PAGE   1
  0()



EVENT   61
 PAGE   1
  0()



EVENT   62
 PAGE   1
  0()



EVENT   63
 PAGE   1
  0()



EVENT   64
 PAGE   1
  0()



EVENT   65
 PAGE   1
  0()



EVENT   66
 PAGE   1
  0()



EVENT   67
 PAGE   1
  0()



EVENT   68
 PAGE   1
  0()



EVENT   69
 PAGE   1
  0()



EVENT   70
 PAGE   1
  0()



EVENT   71
 PAGE   1
  0()



EVENT   72
 PAGE   1
  0()



EVENT   73
 PAGE   1
  0()



EVENT   74
 PAGE   1
  0()



EVENT   75
 PAGE   1
  0()



EVENT   76
 PAGE   1
  0()



EVENT   77
 PAGE   1
  0()



EVENT   78
 PAGE   1
  0()



EVENT   79
 PAGE   1
  0()



EVENT   80
 PAGE   1
  0()



EVENT   81
 PAGE   1
  0()



EVENT   82
 PAGE   1
  0()



EVENT   83
 PAGE   1
  0()



EVENT   84
 PAGE   1
  0()



EVENT   85
 PAGE   1
  0()



EVENT   86
 PAGE   1
  0()



EVENT   87
 PAGE   1
  0()



EVENT   88
 PAGE   1
  0()



EVENT   89
 PAGE   1
  0()



EVENT   90
 PAGE   1
  0()



EVENT   91
 PAGE   1
  0()



EVENT   92
 PAGE   1
  0()



EVENT   93
 PAGE   1
  0()



EVENT   94
 PAGE   1
  0()



EVENT   95
 PAGE   1
  0()



EVENT   96
 PAGE   1
  0()



EVENT   97
 PAGE   1
  0()



EVENT   98
 PAGE   1
  0()



EVENT   99
 PAGE   1
  0()



EVENT   100
 PAGE   1
  0()



EVENT   101
 PAGE   1
  0()



EVENT   102
 PAGE   1
  0()



EVENT   103
 PAGE   1
  0()



EVENT   104
 PAGE   1
  0()



EVENT   105
 PAGE   1
  0()



EVENT   106
 PAGE   1
  0()



EVENT   107
 PAGE   1
  0()



EVENT   108
 PAGE   1
  0()



EVENT   109
 PAGE   1
  0()



EVENT   110
 PAGE   1
  0()



EVENT   111
 PAGE   1
  0()



EVENT   112
 PAGE   1
  0()



EVENT   113
 PAGE   1
  0()



EVENT   114
 PAGE   1
  0()



EVENT   115
 PAGE   1
  0()



EVENT   116
 PAGE   1
  0()



EVENT   117
 PAGE   1
  0()



EVENT   118
 PAGE   1
  0()



EVENT   119
 PAGE   1
  250(bytes(0x04,0x08,0x6f,0x3a,0x0c,0x52,0x50,0x47,0x3a,0x3a,0x53,0x45,0x08,0x3a,0x0a,0x40,0x6e,0x61,0x6d,0x65,0x49,0x22,0x09,0x4d,0x6f,0x76,0x65,0x06,0x3a,0x06,0x45,0x54,0x3a,0x0b,0x40,0x70,0x69,0x74,0x63,0x68,0x69,0x69,0x3a,0x0c,0x40,0x76,0x6f,0x6c,0x75,0x6d,0x65,0x69,0x55))
  TeleportPlayer(0,83,28,55,0,0)
  0()



EVENT   120
 PAGE   1
  250(bytes(0x04,0x08,0x6f,0x3a,0x0c,0x52,0x50,0x47,0x3a,0x3a,0x53,0x45,0x08,0x3a,0x0a,0x40,0x6e,0x61,0x6d,0x65,0x49,0x22,0x09,0x4d,0x6f,0x76,0x65,0x06,0x3a,0x06,0x45,0x54,0x3a,0x0b,0x40,0x70,0x69,0x74,0x63,0x68,0x69,0x69,0x3a,0x0c,0x40,0x76,0x6f,0x6c,0x75,0x6d,0x65,0x69,0x55))
  TeleportPlayer(0,83,29,55,0,0)
  0()



EVENT   121
 PAGE   1
  250(bytes(0x04,0x08,0x6f,0x3a,0x0c,0x52,0x50,0x47,0x3a,0x3a,0x53,0x45,0x08,0x3a,0x0a,0x40,0x6e,0x61,0x6d,0x65,0x49,0x22,0x09,0x4d,0x6f,0x76,0x65,0x06,0x3a,0x06,0x45,0x54,0x3a,0x0b,0x40,0x70,0x69,0x74,0x63,0x68,0x69,0x69,0x3a,0x0c,0x40,0x76,0x6f,0x6c,0x75,0x6d,0x65,0x69,0x55))
  TeleportPlayer(0,85,20,59,0,0)
  0()



EVENT   122
 PAGE   1
  250(bytes(0x04,0x08,0x6f,0x3a,0x0c,0x52,0x50,0x47,0x3a,0x3a,0x53,0x45,0x08,0x3a,0x0a,0x40,0x6e,0x61,0x6d,0x65,0x49,0x22,0x09,0x4d,0x6f,0x76,0x65,0x06,0x3a,0x06,0x45,0x54,0x3a,0x0b,0x40,0x70,0x69,0x74,0x63,0x68,0x69,0x69,0x3a,0x0c,0x40,0x76,0x6f,0x6c,0x75,0x6d,0x65,0x69,0x55))
  TeleportPlayer(0,85,20,59,0,0)
  0()



EVENT   123
 PAGE   1
  250(bytes(0x04,0x08,0x6f,0x3a,0x0c,0x52,0x50,0x47,0x3a,0x3a,0x53,0x45,0x08,0x3a,0x0a,0x40,0x6e,0x61,0x6d,0x65,0x49,0x22,0x09,0x4d,0x6f,0x76,0x65,0x06,0x3a,0x06,0x45,0x54,0x3a,0x0b,0x40,0x70,0x69,0x74,0x63,0x68,0x69,0x69,0x3a,0x0c,0x40,0x76,0x6f,0x6c,0x75,0x6d,0x65,0x69,0x55))
  TeleportPlayer(0,85,20,59,0,0)
  0()



EVENT   124
 PAGE   1
  If(12,"unlock_level < 2")
   ShowMessageFace("",0,0,2,1)
   ShowMessage("宝箱には鍵が掛かっている……")
   EndEventProcessing()
   0()
  EndIf()
  250(bytes(0x04,0x08,0x6f,0x3a,0x0c,0x52,0x50,0x47,0x3a,0x3a,0x53,0x45,0x08,0x3a,0x0a,0x40,0x6e,0x61,0x6d,0x65,0x49,0x22,0x0a,0x43,0x68,0x65,0x73,0x74,0x06,0x3a,0x06,0x45,0x54,0x3a,0x0b,0x40,0x70,0x69,0x74,0x63,0x68,0x69,0x69,0x3a,0x0c,0x40,0x76,0x6f,0x6c,0x75,0x6d,0x65,0x69,0x55))
  205(0,bytes(0x04,0x08,0x6f,0x3a,0x13,0x52,0x50,0x47,0x3a,0x3a,0x4d,0x6f,0x76,0x65,0x52,0x6f,0x75,0x74,0x65,0x09,0x3a,0x0c,0x40,0x72,0x65,0x70,0x65,0x61,0x74,0x46,0x3a,0x0f,0x40,0x73,0x6b,0x69,0x70,0x70,0x61,0x62,0x6c,0x65,0x46,0x3a,0x0a,0x40,0x77,0x61,0x69,0x74,0x54,0x3a,0x0a,0x40,0x6c,0x69,0x73,0x74,0x5b,0x0b,0x6f,0x3a,0x15,0x52,0x50,0x47,0x3a,0x3a,0x4d,0x6f,0x76,0x65,0x43,0x6f,0x6d,0x6d,0x61,0x6e,0x64,0x07,0x3a,0x0a,0x40,0x63,0x6f,0x64,0x65,0x69,0x29,0x3a,0x10,0x40,0x70,0x61,0x72,0x61,0x6d,0x65,0x74,0x65,0x72,0x73,0x5b,0x00,0x6f,0x3b,0x0a,0x07,0x3b,0x0b,0x69,0x16,0x3b,0x0c,0x5b,0x00,0x6f,0x3b,0x0a,0x07,0x3b,0x0b,0x69,0x14,0x3b,0x0c,0x5b,0x06,0x69,0x08,0x6f,0x3b,0x0a,0x07,0x3b,0x0b,0x69,0x17,0x3b,0x0c,0x5b,0x00,0x6f,0x3b,0x0a,0x07,0x3b,0x0b,0x69,0x14,0x3b,0x0c,0x5b,0x06,0x69,0x08,0x6f,0x3b,0x0a,0x07,0x3b,0x0b,0x69,0x00,0x3b,0x0c,0x5b,0x00))
  ChangeSelfSwitch("A",0)
  ChangeInventoryWeapon(792,0,0,1)
  0()
 PAGE   2
  // condition: self-switch A is ON
  0()



EVENT   125
 PAGE   1
  250(bytes(0x04,0x08,0x6f,0x3a,0x0c,0x52,0x50,0x47,0x3a,0x3a,0x53,0x45,0x08,0x3a,0x0a,0x40,0x6e,0x61,0x6d,0x65,0x49,0x22,0x0a,0x43,0x68,0x65,0x73,0x74,0x06,0x3a,0x06,0x45,0x54,0x3a,0x0b,0x40,0x70,0x69,0x74,0x63,0x68,0x69,0x69,0x3a,0x0c,0x40,0x76,0x6f,0x6c,0x75,0x6d,0x65,0x69,0x55))
  205(0,bytes(0x04,0x08,0x6f,0x3a,0x13,0x52,0x50,0x47,0x3a,0x3a,0x4d,0x6f,0x76,0x65,0x52,0x6f,0x75,0x74,0x65,0x09,0x3a,0x0c,0x40,0x72,0x65,0x70,0x65,0x61,0x74,0x46,0x3a,0x0f,0x40,0x73,0x6b,0x69,0x70,0x70,0x61,0x62,0x6c,0x65,0x46,0x3a,0x0a,0x40,0x77,0x61,0x69,0x74,0x54,0x3a,0x0a,0x40,0x6c,0x69,0x73,0x74,0x5b,0x0b,0x6f,0x3a,0x15,0x52,0x50,0x47,0x3a,0x3a,0x4d,0x6f,0x76,0x65,0x43,0x6f,0x6d,0x6d,0x61,0x6e,0x64,0x07,0x3a,0x0a,0x40,0x63,0x6f,0x64,0x65,0x69,0x29,0x3a,0x10,0x40,0x70,0x61,0x72,0x61,0x6d,0x65,0x74,0x65,0x72,0x73,0x5b,0x00,0x6f,0x3b,0x0a,0x07,0x3b,0x0b,0x69,0x16,0x3b,0x0c,0x5b,0x00,0x6f,0x3b,0x0a,0x07,0x3b,0x0b,0x69,0x14,0x3b,0x0c,0x5b,0x06,0x69,0x08,0x6f,0x3b,0x0a,0x07,0x3b,0x0b,0x69,0x17,0x3b,0x0c,0x5b,0x00,0x6f,0x3b,0x0a,0x07,0x3b,0x0b,0x69,0x14,0x3b,0x0c,0x5b,0x06,0x69,0x08,0x6f,0x3b,0x0a,0x07,0x3b,0x0b,0x69,0x00,0x3b,0x0c,0x5b,0x00))
  ChangeSelfSwitch("A",0)
  ChangeInventoryArmor(1646,0,0,1)
  0()
 PAGE   2
  // condition: self-switch A is ON
  0()
