﻿
DisplayName "テスト島"



EVENT   1
 PAGE   1
  217()
  ShowMessageFace("alice_fc1",0,0,2,1)
  ShowMessage("どうする？")
  ShowChoices(strings("転職","パーティ編集"),5)
  IfPlayerPicksChoice(0,null)
   355("SceneManager.call(Scene_JobChange)")
   0()
  IfPlayerPicksChoice(1,null)
   355("SceneManager.call(Scene_PartyEdit)")
   0()
  IfPlayerCancelsChoice()
   0()
  404()
  0()



EVENT   2
 PAGE   1
  ChangeSelfSwitch("A",0)
  ChangeSwitch(1001,1001,0)
  ChangeVariable(2001,2999,0,0,25)
  ChangeSwitch(2,2,0)
  ChangeSwitch(3,3,0)
  ChangeSwitch(103,103,0)
  ChangeSwitch(201,201,0)
  ChangeSwitch(90,90,0)
  ChangeSwitch(91,91,0)
  ChangeSwitch(92,92,0)
  ChangeSwitch(372,397,0)
  211(1)
  0()
 PAGE   2
  // condition: self-switch A is ON
  0()



EVENT   3
 PAGE   1
  ShowMessageFace("tamamo_fc1",1,0,2,1)
  ShowMessage("テスト用じゃ！")
  ShowChoices(strings("全アイテム取得","全職業取得","全仲間取得","各種解放"),5)
  IfPlayerPicksChoice(0,null)
   355("# 武器を全種類、50個入手する")
   655("$data_weapons.compact.each{|w|")
   655("  next if w.name == \"\"")
   655("  $game_party.gain_item(w, 50)")
   655("}")
   355("# 防具を全種類、50個入手する")
   655("$data_armors.compact.each{|a|")
   655("  next if a.name == \"\"")
   655("  $game_party.gain_item(a, 50)")
   655("}")
   355("# アイテムを全種類、50個入手する")
   655("$data_items.compact.each{|i|")
   655("  next if i.name")
   655("== \"\"")
   655("  $game_party.gain_item(i, 50)")
   655("}")
   125(0,0,10000)
   0()
  IfPlayerPicksChoice(1,null)
   355("# ルカの全職業をレベルＭＡＸまで経験する")
   655("actor = $game_actors[1]")
   655("temp_id = actor.class_id")
   655("NWConst::Class::JOB_RANGE.each{|id|")
   655("  actor.change_class(id, :class)")
   655("  actor.change_level(10, false, :class)")
   655("}")
   655("actor.change_class(temp_id, :class)")
   355("actor = $game_actors[1]")
   655("temp_id = actor.tribe_id")
   655("NWConst::Class::TRIBE_RANGE.each{|id|")
   655("  actor.change_class(id, :tribe)")
   655("  actor.change_level(10, false, :tribe)")
   655("}")
   655("actor.change_class(temp_id, :tribe)")
   0()
  IfPlayerPicksChoice(2,null)
   355("# 全アクターを仲間にする")
   655("$data_actors.compact.each{|actor|")
   655("  next if actor.name == \"\"")
   655("  $game_party.add_actor(actor.id)")
   655("}")
   0()
  IfPlayerPicksChoice(3,null)
   ShowMessageFace("tamamo_fc1",1,0,2,2)
   ShowMessage("仲間化オン！")
   ChangeSwitch(3,3,1)
   ShowMessageFace("tamamo_fc1",1,0,2,3)
   ShowMessage("ワープフラグオン！")
   ChangeSwitch(101,200,0)
   ShowMessageFace("tamamo_fc1",1,0,2,4)
   ShowMessage("図鑑解放！")
   ChangeSwitch(201,400,0)
   355("library_all_open")
   ShowMessageFace("tamamo_fc1",1,0,2,5)
   ShowMessage("メダル解放！")
   355(" data = NWConst::Library::MEDAL_DATA")
   655("data.keys.each{|i| gain_medal(i)}")
   0()
  IfPlayerCancelsChoice()
   0()
  404()
  0()



EVENT   4
 PAGE   1
  ShowMessageFace("granberia_fc2",0,0,2,1)
  ShowMessage("誰と戦う？")
  ShowChoices(strings("弱い敵","強い敵","すごく強い敵"),2)
  IfPlayerPicksChoice(0,null)
   Battle(0,1,false,false)
   0()
  IfPlayerPicksChoice(1,null)
   ChangeVariable(19,19,0,0,10000)
   ShowChoices(strings("ミカエラ","美凪"),3)
   IfPlayerPicksChoice(0,null)
    SetBattleBGM(bytes(0x04,0x08,0x6f,0x3a,0x0d,0x52,0x50,0x47,0x3a,0x3a,0x42,0x47,0x4d,0x08,0x3a,0x0a,0x40,0x6e,0x61,0x6d,0x65,0x49,0x22,0x16,0x62,0x6f,0x73,0x73,0x5f,0x6e,0x61,0x6e,0x61,0x64,0x61,0x69,0x74,0x65,0x6e,0x73,0x69,0x06,0x3a,0x06,0x45,0x54,0x3a,0x0c,0x40,0x76,0x6f,0x6c,0x75,0x6d,0x65,0x69,0x69,0x3a,0x0b,0x40,0x70,0x69,0x74,0x63,0x68,0x69,0x69))
    283("bg001","")
    Battle(0,381,true,false)
    IfPlayerWins()
     0()
    IfPlayerEscapes()
     0()
    604()
    0()
   IfPlayerPicksChoice(1,null)
    SetBattleBGM(bytes(0x04,0x08,0x6f,0x3a,0x0d,0x52,0x50,0x47,0x3a,0x3a,0x42,0x47,0x4d,0x08,0x3a,0x0a,0x40,0x6e,0x61,0x6d,0x65,0x49,0x22,0x10,0x62,0x6f,0x73,0x73,0x5f,0x72,0x69,0x6b,0x75,0x73,0x6f,0x06,0x3a,0x06,0x45,0x54,0x3a,0x0c,0x40,0x76,0x6f,0x6c,0x75,0x6d,0x65,0x69,0x69,0x3a,0x0b,0x40,0x70,0x69,0x74,0x63,0x68,0x69,0x69))
    283("DemonicWorld1","DemonicWorld")
    Battle(0,380,true,false)
    IfPlayerWins()
     0()
    IfPlayerEscapes()
     0()
    604()
    0()
   404()
   0()
  IfPlayerPicksChoice(2,null)
   ChangeVariable(19,19,0,0,100000)
   ShowChoices(strings("女神イリアス","邪神アリスフィーズ","カオス"),0)
   IfPlayerPicksChoice(0,null)
    SetBattleBGM(bytes(0x04,0x08,0x6f,0x3a,0x0d,0x52,0x50,0x47,0x3a,0x3a,0x42,0x47,0x4d,0x08,0x3a,0x0a,0x40,0x6e,0x61,0x6d,0x65,0x49,0x22,0x10,0x62,0x6f,0x73,0x73,0x5f,0x69,0x72,0x69,0x61,0x73,0x32,0x06,0x3a,0x06,0x45,0x54,0x3a,0x0c,0x40,0x76,0x6f,0x6c,0x75,0x6d,0x65,0x69,0x69,0x3a,0x0b,0x40,0x70,0x69,0x74,0x63,0x68,0x69,0x69))
    283("bg001","")
    Battle(0,382,true,false)
    IfPlayerWins()
     0()
    IfPlayerEscapes()
     0()
    604()
    0()
   IfPlayerPicksChoice(1,null)
    SetBattleBGM(bytes(0x04,0x08,0x6f,0x3a,0x0d,0x52,0x50,0x47,0x3a,0x3a,0x42,0x47,0x4d,0x08,0x3a,0x0a,0x40,0x6e,0x61,0x6d,0x65,0x49,0x22,0x10,0x62,0x6f,0x73,0x73,0x5f,0x61,0x6c,0x69,0x63,0x65,0x32,0x06,0x3a,0x06,0x45,0x54,0x3a,0x0c,0x40,0x76,0x6f,0x6c,0x75,0x6d,0x65,0x69,0x69,0x3a,0x0b,0x40,0x70,0x69,0x74,0x63,0x68,0x69,0x69))
    283("DemonicWorld1","")
    Battle(0,383,true,false)
    IfPlayerWins()
     0()
    IfPlayerEscapes()
     0()
    604()
    0()
   IfPlayerPicksChoice(2,null)
    SetBattleBGM(bytes(0x04,0x08,0x6f,0x3a,0x0d,0x52,0x50,0x47,0x3a,0x3a,0x42,0x47,0x4d,0x08,0x3a,0x0a,0x40,0x6e,0x61,0x6d,0x65,0x49,0x22,0x0f,0x62,0x6f,0x73,0x73,0x5f,0x63,0x68,0x61,0x6f,0x73,0x06,0x3a,0x06,0x45,0x54,0x3a,0x0c,0x40,0x76,0x6f,0x6c,0x75,0x6d,0x65,0x69,0x69,0x3a,0x0b,0x40,0x70,0x69,0x74,0x63,0x68,0x69,0x69))
    283("DarkSpace","DarkSpace")
    Battle(0,384,true,false)
    IfPlayerWins()
     0()
    IfPlayerEscapes()
     0()
    604()
    0()
   404()
   0()
  404()
  0()



EVENT   5
 PAGE   1
  314(0,0)
  ShowMessageFace("",0,0,2,1)
  ShowMessage("どうしたい？")
  ShowChoices(strings("レベル1アップ","職業レベル最大","種族レベル最大","種族変更"),5)
  IfPlayerPicksChoice(0,null)
   ShowMessageFace("",0,0,2,2)
   ShowMessage("レベルを上げるわ")
   316(0,0,0,0,1,true)
   0()
  IfPlayerPicksChoice(1,null)
   ShowMessageFace("",0,0,2,3)
   ShowMessage("職業レベルを最大まで上げるわ")
   355("change_joblv(1, 10, true)")
   0()
  IfPlayerPicksChoice(2,null)
   ShowMessageFace("",0,0,2,4)
   ShowMessage("種族レベルを最大まで上げるわ")
   355("change_sub_joblv(1, 10, true)")
   0()
  IfPlayerPicksChoice(3,null)
   ShowMessageFace("",1,0,2,5)
   ShowMessage("誰を妖魔にするの？")
   ChangeVariable(13,13,0,0,158)
   355("names = party_members.collect{|m|m.name}")
   655("unlimited_choices(11, names)")
   ChangeVariable(12,12,0,4,"party_members.size")
   If(1,11,1,12,4)
    355("change_sub_class_member(v(11),v(13))")
    0()
   EndIf()
   0()
  IfPlayerCancelsChoice()
   0()
  404()
  0()



EVENT   6
 PAGE   1
  ShowMessageFace("",0,0,2,1)
  ShowMessage("本編を開始します……")
  211(0)
  241(bytes(0x04,0x08,0x6f,0x3a,0x0d,0x52,0x50,0x47,0x3a,0x3a,0x42,0x47,0x4d,0x08,0x3a,0x0a,0x40,0x6e,0x61,0x6d,0x65,0x49,0x22,0x00,0x06,0x3a,0x06,0x45,0x54,0x3a,0x0c,0x40,0x76,0x6f,0x6c,0x75,0x6d,0x65,0x69,0x69,0x3a,0x0b,0x40,0x70,0x69,0x74,0x63,0x68,0x69,0x69))
  TeleportPlayer(0,545,1,0,0,2)
  0()



EVENT   8
 PAGE   1
  ShowMessageFace("",0,0,2,1)
  ShowMessage("ボタン3を10回")
  355("input_keys(180)")
  If(12,"10 <= keys_stack.count(:B3)")
   ShowMessageFace("",0,0,2,2)
   ShowMessage("成功")
   0()
  Else()
   ShowMessageFace("",0,0,2,3)
   ShowMessage("失敗")
   0()
  EndIf()
  0()



EVENT   9
 PAGE   1
  ShowMessageFace("",0,0,2,1)
  ShowMessage("上、下、左、右、ボタン3")
  355("input_keys(180)")
  If(12,"keys_stack.to_s =~ /:U, :D, :L, :R, :B3/")
   ShowMessageFace("",0,0,2,2)
   ShowMessage("成功")
   0()
  Else()
   ShowMessageFace("",0,0,2,3)
   ShowMessage("失敗")
   0()
  EndIf()
  0()



EVENT   11
 PAGE   1
  205(0,bytes(0x04,0x08,0x6f,0x3a,0x13,0x52,0x50,0x47,0x3a,0x3a,0x4d,0x6f,0x76,0x65,0x52,0x6f,0x75,0x74,0x65,0x09,0x3a,0x0c,0x40,0x72,0x65,0x70,0x65,0x61,0x74,0x46,0x3a,0x0f,0x40,0x73,0x6b,0x69,0x70,0x70,0x61,0x62,0x6c,0x65,0x54,0x3a,0x0a,0x40,0x77,0x61,0x69,0x74,0x54,0x3a,0x0a,0x40,0x6c,0x69,0x73,0x74,0x5b,0x08,0x6f,0x3a,0x15,0x52,0x50,0x47,0x3a,0x3a,0x4d,0x6f,0x76,0x65,0x43,0x6f,0x6d,0x6d,0x61,0x6e,0x64,0x07,0x3a,0x0a,0x40,0x63,0x6f,0x64,0x65,0x69,0x1f,0x3a,0x10,0x40,0x70,0x61,0x72,0x61,0x6d,0x65,0x74,0x65,0x72,0x73,0x5b,0x00,0x6f,0x3b,0x0a,0x07,0x3b,0x0b,0x69,0x11,0x3b,0x0c,0x5b,0x00,0x6f,0x3b,0x0a,0x07,0x3b,0x0b,0x69,0x00,0x3b,0x0c,0x5b,0x00))
  0()

EVENT   12
 PAGE   1
  ShowChoices(strings("テキスト化","再結合","やめる"),3)
  IfPlayerPicksChoice(0,null)
   355("common_data_to_text")
   0()
  IfPlayerPicksChoice(1,null)
   355("common_text_to_data")
   ShowMessageFace("",0,0,2,1)
   ShowMessage("終了")
   0()
  IfPlayerPicksChoice(2,null)
   0()
  404()
  0()



EVENT   13
 PAGE   1
  ChangeVariable(1081,1081,0,0,3)
  TeleportPlayer(0,513,38,36,0,0)
  0()


