


EVENT   1
 PAGE   1
  250(bytes(0x04,0x08,0x6f,0x3a,0x0c,0x52,0x50,0x47,0x3a,0x3a,0x53,0x45,0x08,0x3a,0x0a,0x40,0x6e,0x61,0x6d,0x65,0x49,0x22,0x09,0x4d,0x6f,0x76,0x65,0x06,0x3a,0x06,0x45,0x54,0x3a,0x0b,0x40,0x70,0x69,0x74,0x63,0x68,0x69,0x69,0x3a,0x0c,0x40,0x76,0x6f,0x6c,0x75,0x6d,0x65,0x69,0x55))
  TeleportPlayer(0,221,68,28,0,0)
  0()



EVENT   2
 PAGE   1
  250(bytes(0x04,0x08,0x6f,0x3a,0x0c,0x52,0x50,0x47,0x3a,0x3a,0x53,0x45,0x08,0x3a,0x0a,0x40,0x6e,0x61,0x6d,0x65,0x49,0x22,0x09,0x4d,0x6f,0x76,0x65,0x06,0x3a,0x06,0x45,0x54,0x3a,0x0b,0x40,0x70,0x69,0x74,0x63,0x68,0x69,0x69,0x3a,0x0c,0x40,0x76,0x6f,0x6c,0x75,0x6d,0x65,0x69,0x55))
  TeleportPlayer(0,221,6,6,2,0)
  0()



EVENT   3
 PAGE   1
  281(1)
  250(bytes(0x04,0x08,0x6f,0x3a,0x0c,0x52,0x50,0x47,0x3a,0x3a,0x53,0x45,0x08,0x3a,0x0a,0x40,0x6e,0x61,0x6d,0x65,0x49,0x22,0x09,0x4d,0x6f,0x76,0x65,0x06,0x3a,0x06,0x45,0x54,0x3a,0x0b,0x40,0x70,0x69,0x74,0x63,0x68,0x69,0x69,0x3a,0x0c,0x40,0x76,0x6f,0x6c,0x75,0x6d,0x65,0x69,0x55))
  TeleportPlayer(0,11,45,11,0,0)
  0()



EVENT   4
 PAGE   1
  281(1)
  250(bytes(0x04,0x08,0x6f,0x3a,0x0c,0x52,0x50,0x47,0x3a,0x3a,0x53,0x45,0x08,0x3a,0x0a,0x40,0x6e,0x61,0x6d,0x65,0x49,0x22,0x09,0x4d,0x6f,0x76,0x65,0x06,0x3a,0x06,0x45,0x54,0x3a,0x0b,0x40,0x70,0x69,0x74,0x63,0x68,0x69,0x69,0x3a,0x0c,0x40,0x76,0x6f,0x6c,0x75,0x6d,0x65,0x69,0x55))
  TeleportPlayer(0,11,36,18,0,0)
  0()



EVENT   5
 PAGE   1
  281(1)
  250(bytes(0x04,0x08,0x6f,0x3a,0x0c,0x52,0x50,0x47,0x3a,0x3a,0x53,0x45,0x08,0x3a,0x0a,0x40,0x6e,0x61,0x6d,0x65,0x49,0x22,0x09,0x4d,0x6f,0x76,0x65,0x06,0x3a,0x06,0x45,0x54,0x3a,0x0b,0x40,0x70,0x69,0x74,0x63,0x68,0x69,0x69,0x3a,0x0c,0x40,0x76,0x6f,0x6c,0x75,0x6d,0x65,0x69,0x55))
  TeleportPlayer(0,11,26,25,0,0)
  0()



EVENT   6
 PAGE   1
  281(1)
  250(bytes(0x04,0x08,0x6f,0x3a,0x0c,0x52,0x50,0x47,0x3a,0x3a,0x53,0x45,0x08,0x3a,0x0a,0x40,0x6e,0x61,0x6d,0x65,0x49,0x22,0x09,0x4d,0x6f,0x76,0x65,0x06,0x3a,0x06,0x45,0x54,0x3a,0x0b,0x40,0x70,0x69,0x74,0x63,0x68,0x69,0x69,0x3a,0x0c,0x40,0x76,0x6f,0x6c,0x75,0x6d,0x65,0x69,0x55))
  TeleportPlayer(0,11,41,34,0,0)
  0()



EVENT   7
 PAGE   1
  281(1)
  250(bytes(0x04,0x08,0x6f,0x3a,0x0c,0x52,0x50,0x47,0x3a,0x3a,0x53,0x45,0x08,0x3a,0x0a,0x40,0x6e,0x61,0x6d,0x65,0x49,0x22,0x09,0x4d,0x6f,0x76,0x65,0x06,0x3a,0x06,0x45,0x54,0x3a,0x0b,0x40,0x70,0x69,0x74,0x63,0x68,0x69,0x69,0x3a,0x0c,0x40,0x76,0x6f,0x6c,0x75,0x6d,0x65,0x69,0x55))
  TeleportPlayer(0,11,50,24,0,0)
  0()



EVENT   8
 PAGE   1
  281(1)
  250(bytes(0x04,0x08,0x6f,0x3a,0x0c,0x52,0x50,0x47,0x3a,0x3a,0x53,0x45,0x08,0x3a,0x0a,0x40,0x6e,0x61,0x6d,0x65,0x49,0x22,0x09,0x4d,0x6f,0x76,0x65,0x06,0x3a,0x06,0x45,0x54,0x3a,0x0b,0x40,0x70,0x69,0x74,0x63,0x68,0x69,0x69,0x3a,0x0c,0x40,0x76,0x6f,0x6c,0x75,0x6d,0x65,0x69,0x55))
  TeleportPlayer(0,11,56,25,0,0)
  0()



EVENT   9
 PAGE   1
  281(1)
  250(bytes(0x04,0x08,0x6f,0x3a,0x0c,0x52,0x50,0x47,0x3a,0x3a,0x53,0x45,0x08,0x3a,0x0a,0x40,0x6e,0x61,0x6d,0x65,0x49,0x22,0x09,0x4d,0x6f,0x76,0x65,0x06,0x3a,0x06,0x45,0x54,0x3a,0x0b,0x40,0x70,0x69,0x74,0x63,0x68,0x69,0x69,0x3a,0x0c,0x40,0x76,0x6f,0x6c,0x75,0x6d,0x65,0x69,0x55))
  TeleportPlayer(0,11,54,44,0,0)
  0()



EVENT   10
 PAGE   1
  281(1)
  250(bytes(0x04,0x08,0x6f,0x3a,0x0c,0x52,0x50,0x47,0x3a,0x3a,0x53,0x45,0x08,0x3a,0x0a,0x40,0x6e,0x61,0x6d,0x65,0x49,0x22,0x09,0x4d,0x6f,0x76,0x65,0x06,0x3a,0x06,0x45,0x54,0x3a,0x0b,0x40,0x70,0x69,0x74,0x63,0x68,0x69,0x69,0x3a,0x0c,0x40,0x76,0x6f,0x6c,0x75,0x6d,0x65,0x69,0x55))
  TeleportPlayer(0,11,50,53,0,0)
  0()



EVENT   11
 PAGE   1
  281(1)
  250(bytes(0x04,0x08,0x6f,0x3a,0x0c,0x52,0x50,0x47,0x3a,0x3a,0x53,0x45,0x08,0x3a,0x0a,0x40,0x6e,0x61,0x6d,0x65,0x49,0x22,0x09,0x4d,0x6f,0x76,0x65,0x06,0x3a,0x06,0x45,0x54,0x3a,0x0b,0x40,0x70,0x69,0x74,0x63,0x68,0x69,0x69,0x3a,0x0c,0x40,0x76,0x6f,0x6c,0x75,0x6d,0x65,0x69,0x55))
  TeleportPlayer(0,11,31,59,0,0)
  0()



EVENT   12
 PAGE   1
  ShowMessageFace("",0,0,2,1)
  ShowMessage("\\n<Shopkeeper>I'm the only one allowed to trade in this village. Ahh, this village is such a great place!")
  Shop(0,2,0,0,false)
  605(0,13,0,0)
  605(0,17,0,0)
  605(0,63,0,0)
  605(0,67,0,0)
  605(0,71,0,0)
  605(1,558,0,0)
  605(1,666,0,0)
  605(2,1046,0,0)
  605(2,1731,0,0)
  ShowMessageFace("",0,0,2,2)
  ShowMessage("\\n<Shopkeeper>Ahh, this village is a such a great place!")
  0()



EVENT   13
 PAGE   1
  If(1,1022,0,1,2)
   ChangeSwitch(2068,2068,0)
   ShowMessageFace("",0,0,2,1)
   ShowMessage("\\n<Priest>I can tell with a glance that you aren't righteous. Leave this sacred church at once!")
   If(0,6,0)
    ShowMessageFace("sonia_fc3",2,0,2,2)
    ShowMessage("\\n<Sonya>Hey, that's horrible!")
    0()
   EndIf()
   If(0,4,0)
    ShowMessageFace("alice_fc5",3,0,2,3)
    ShowMessage("\\n<Alice>He's gone insane because of faith... This is why I say that Ilias's faith is poison.")
    0()
   EndIf()
   If(0,5,0)
    ShowMessageFace("iriasu_fc5",0,0,2,4)
    ShowMessage("\\n<Ilias>How insolent! You will burn in hell for all eternity!")
    ShowMessageFace("iriasu_fc4",2,0,2,5)
    ShowMessage("\\n<Ilias>...Is what I want to say, but something's off. It doesn't seem like this priest really means it...")
    0()
   EndIf()
   EndEventProcessing()
   0()
  EndIf()
  If(1,1022,0,2,0)
   ChangeVariable(1022,1022,0,0,3)
   ShowMessageFace("",0,0,2,6)
   ShowMessage("\\n<Priest>So, you are His Holiness's escort, yes? I've heard about you already.")
   ShowMessageFace("",0,0,2,7)
   ShowMessage("\\n<Priest>His Holiness the Pope will be here soon. Let's go to the rendezvous point.")
   ShowMessageFace("",0,0,2,8)
   ShowMessage("\\n<Priest>If we leave together, the villagers will get suspicious. Please enter the forest to the west ahead of me.")
   If(0,6,0)
    ShowMessageFace("sonia_fc2",2,0,2,9)
    ShowMessage("\\n<Sonya>Uh... do you really want to keep this ritual that secret? Just praying in the ancient ruins isn't that big a deal...")
    0()
   Else()
    ShowMessageFace("ruka_fc1",0,0,2,10)
    ShowMessage("\\n<Luka>Um... is there a need to keep the ritual confidential? Praying in the ancient ruins shouldn't be that troubling...")
    0()
   EndIf()
   ShowMessageFace("",0,0,2,11)
   ShowMessage("\\n<Priest>...This is the church's biggest secret. Soon, you too will understand it.")
   If(4,41,0)
    ShowMessageFace("stein_fc2",0,0,2,12)
    ShowMessage("\\n<Promestein>Religion sticks to its sacraments, but... this feels a little different.")
    0()
   EndIf()
   ShowMessageFace("",0,0,2,13)
   ShowMessage("\\n<Priest>That's how it is, so please head to the forest on the western outskirts of the village. And please make sure the villagers don't notice you.")
   ShowMessageFace("ruka_fc1",0,0,2,14)
   ShowMessage("\\n<Luka>Yes, we understand...")
   If(4,53,0)
    ShowMessageFace("slime_fc1",0,0,2,15)
    ShowMessage("\\n<Lime>Let's go secretly...")
    0()
   EndIf()
   ShowMessageFace("",0,0,2,16)
   ShowMessage("Puzzling... Still, we've got no choice but to do as we were told.")
   EndEventProcessing()
   0()
  EndIf()
  If(1,1022,0,3,0)
   ShowMessageFace("",0,0,2,17)
   ShowMessage("\\n<Priest>If we leave together, the villagers will get suspicious. Please enter the forest to the west ahead of me, and make sure the villagers don't notice you.")
   EndEventProcessing()
   0()
  EndIf()
  0()
 PAGE   2
  // condition: variable 1022 >= 4
  0()
 PAGE   3
  // condition: variable 1022 >= 5
  If(1,1022,0,5,0)
   ShowMessageFace("",0,0,2,1)
   ShowMessage("\\n<Priest>Oh? Is there a problem?")
   EndEventProcessing()
   0()
  EndIf()
  If(1,1022,0,6,1)
   ShowMessageFace("",0,0,2,2)
   ShowMessage("\\n<Priest>Thank you very much for escorting His Holiness. I will continue secretly investigating this village.")
   ShowMessageFace("",0,0,2,3)
   ShowMessage("\\n<Priest>It's not like the church is ignoring this place. We protect the villagers, aid escapees... We help out with many things.")
   ShowMessageFace("",0,0,2,4)
   ShowMessage("\\n<Priest>Ultimately, we wish to dismantle this village. Anyway, leave it to us.")
   ShowMessageFace("",0,0,2,5)
   ShowMessage("\\n<Priest>I will pray for your safety as well. Now, I beg your pardon. I can't have them realize I'm with the church faction.")
   ShowMessageFace("",0,0,2,6)
   ShowMessage("The priest shouts so loudly he can be heard outside!")
   ShowMessageFace("",0,0,2,7)
   ShowMessage("\\n<Priest>Nghh! You devil's minions!! Hurry up and leave this sacred church!")
   If(0,6,0)
    ShowMessageFace("sonia_fc4",0,0,2,8)
    ShowMessage("\\n<Sonya>He's in a difficult position...")
    0()
   Else()
    ShowMessageFace("ruka_fc1",0,0,2,9)
    ShowMessage("\\n<Luka>That's a difficult position...")
    0()
   EndIf()
   EndEventProcessing()
   0()
  EndIf()
  0()



EVENT   14
 PAGE   1
  ShowMessageFace("",0,0,2,1)
  ShowMessage("\\n<Young Girl>Please leave... If someone from the village sees you here...")
  If(0,6,0)
   ShowMessageFace("sonia_fc2",2,0,2,2)
   ShowMessage("\\n<Sonya>Let's go for now, Luka. We'll probably cause trouble for these people.")
   ShowMessageFace("sonia_fc1",5,0,2,3)
   ShowMessage("\\n<Sonya>We need to report this village to San Ilia. We'll save you soon!")
   0()
  EndIf()
  0()



EVENT   15
 PAGE   1
  ShowMessageFace("",0,0,2,1)
  ShowMessage("\\n<Middle-Aged Man>Port Marle is a filthy town drowning in luxuries. A cave is better than that place. The blockade should last forever to please the Goddess.")
  ShowMessageFace("",0,0,2,2)
  ShowMessage("\\n<Middle-Aged Man>Their goods won't come? So what? Be self-sufficient and you won't care.")
  ShowMessageFace("",0,0,2,3)
  ShowMessage("\\n<Middle-Aged Man>Listen, in the past, people were self-sufficient and did just fine. They ate things they raised by themselves, crafted whatever they needed...")
  ShowMessageFace("",0,0,2,4)
  ShowMessage("\\n<Middle-Aged Man>Importing things from afar via trade, like they are doing now, is human arrogance. Humans can do fine with self-sufficiency!")
  If(0,1041,0)
   ShowMessageFace("stein_fc2",0,0,2,5)
   ShowMessage("\\n<Promestein>In the era when humans were self-sufficient, their lifespans were nearly half of their current length. There have been huge improvements in medicine and nutrition compared to what was available back then.")
   ShowMessageFace("stein_fc2",0,0,2,6)
   ShowMessage("\\n<Promestein>By trading with distant lands, you can consume a larger variety of meals, which clearly improves the nutritional balance of all villagers.")
   ShowMessageFace("stein_fc2",0,0,2,7)
   ShowMessage("\\n<Promestein>Going against this will reduce your average lifespan. That's a hallmark of a civilization in regression.")
   0()
  EndIf()
  0()



EVENT   16
 PAGE   1
  ShowMessageFace("",0,0,2,1)
  ShowMessage("\\n<Woman>Because of the war, the imports from Port Marle are limited... It's tough to deal with supply interruptions, you know.")
  ShowMessageFace("",0,0,2,2)
  ShowMessage("\\n<Woman>While we're self-sufficient, there are some things we can't make... If our village allows it, I'd like to return to San Ilia.")
  0()



EVENT   17
 PAGE   1
  ShowMessageFace("",0,0,2,1)
  ShowMessage("\\n<Girl>This is a good village. Everyone is kind and lives simply.")
  0()



EVENT   18
 PAGE   1
  ShowMessageFace("",0,0,2,1)
  ShowMessage("\\n<Young Girl>......")
  0()



EVENT   19
 PAGE   1
  ShowMessageFace("",0,0,2,1)
  ShowMessage("Something is written on the wooden box. It looks like a little girl wrote it.")
  ShowMessageFace("",0,0,2,2)
  ShowMessage("Happy village")
  ShowMessage("Everyday is wonderful")
  ShowMessage("Loving family")
  ShowMessage("Pretty surroundings")
  0()



EVENT   20
 PAGE   1
  ShowMessageFace("",0,0,2,1)
  ShowMessage("\\n<Young Girl>What is it? I was told not to speak with outsiders...")
  0()



EVENT   21
 PAGE   1
  ShowMessageFace("",0,0,2,1)
  ShowMessage("\\n<Young Girl>......")
  ShowMessageFace("",0,0,2,2)
  ShowMessage("The girl won't look you in the eye...")
  0()



EVENT   22
 PAGE   1
  ShowMessageFace("",0,0,2,1)
  ShowMessage("\\n<Young Girl>I want to leave this village as quickly as possible...")
  0()



EVENT   23
 PAGE   1
  ShowMessageFace("",0,0,2,1)
  ShowMessage("\\n<Innkeeper>The Pilgrimage Inn is 3G a night... Wait, for you, it's 30G.\\$")
  ShowChoices(strings("Yes","No"),2)
  IfPlayerPicksChoice(0,null)
   If(7,30,0)
    125(1,0,30)
    221()
    249(bytes(0x04,0x08,0x6f,0x3a,0x0c,0x52,0x50,0x47,0x3a,0x3a,0x4d,0x45,0x08,0x3a,0x0a,0x40,0x6e,0x61,0x6d,0x65,0x49,0x22,0x08,0x49,0x6e,0x6e,0x06,0x3a,0x06,0x45,0x54,0x3a,0x0b,0x40,0x70,0x69,0x74,0x63,0x68,0x69,0x69,0x3a,0x0c,0x40,0x76,0x6f,0x6c,0x75,0x6d,0x65,0x69,0x69))
    Wait(150)
    314(0,0)
    222()
    0()
   Else()
    ShowMessageFace("",0,0,2,2)
    ShowMessage("\\n<Innkeeper>Seems you don't have enough money...")
    0()
   EndIf()
   0()
  IfPlayerPicksChoice(1,null)
   0()
  404()
  0()



EVENT   24
 PAGE   1
  ShowMessageFace("",0,0,2,1)
  ShowMessage("\\n<Female Soldier>I can't say it too loudly... but, I want to leave this village as soon as possible.")
  355("actor_label_jump")
  EndEventProcessing()
  DefineLabel("525")
  ShowMessageFace("sonia_fc2",2,0,2,2)
  ShowMessage("\\n<Sonya>Me too... Luka, let's get out of here, and fast.")
  EndEventProcessing()
  0()



EVENT   25
 PAGE   1
  ShowMessageFace("",0,0,2,1)
  ShowMessage("\\n<Soldier>This village is more closed off than I expected. I know they're deeply religious, but this is some repulsive-level stuff.")
  If(0,4,0)
   ShowMessageFace("alice_fc5",3,0,2,2)
   ShowMessage("\\n<Alice>I bet Ilias would still be delighted...")
   0()
  EndIf()
  If(0,5,0)
   ShowMessageFace("iriasu_fc4",2,0,2,3)
   ShowMessage("\\n<Ilias>I'm repulsed by it as well... Even the heavens are brighter and more liberated.")
   0()
  EndIf()
  0()



EVENT   26
 PAGE   1
  ShowMessageFace("",0,0,2,1)
  ShowMessage("\\n<Young Girl>We got some strange leaflets. Did someone just leave them in our house...?")
  ShowMessageFace("",0,0,2,2)
  ShowMessage("\\n<Young Girl>One of them says, \"I grant power to the weak and oppressed. If you wish to break away from your painful reality, seek out Lily's power.\"")
  ShowMessageFace("",0,0,2,3)
  ShowMessage("\\n<Young Girl>I want power... Should I go find this Lily person?")
  355("actor_label_jump")
  EndEventProcessing()
  DefineLabel("5")
  ShowMessageFace("alice_fc5",0,0,2,4)
  ShowMessage("\\n<Alice>This leaflet smells strangely of magic. Is this Lily a mage, perhaps?")
  EndEventProcessing()
  DefineLabel("56")
  ShowMessageFace("inp_fc1",0,0,2,5)
  ShowMessage("\\n<Rami>I want power too! ...But this leaflet smells shady.")
  EndEventProcessing()
  DefineLabel("79")
  ShowMessageFace("nuruko_fc1",0,0,2,6)
  ShowMessage("\\n<Nuruko>*nom* *nom*...")
  ShowMessageFace("",0,0,2,7)
  ShowMessage("It looks like Nuruko ate the leaflet!")
  ShowMessageFace("nuruko_fc1",2,0,2,8)
  ShowMessage("\\n<Nuruko>Pft!!")
  ShowMessageFace("",0,0,2,9)
  ShowMessage("...The moment I thought that, she spat it out!")
  EndEventProcessing()
  DefineLabel("88")
  ShowMessageFace("jack_fc1",0,0,2,10)
  ShowMessage("\\n<Pumpkin>Will she give me power too? I should try going there...")
  ShowMessageFace("jack_fc1",1,0,2,11)
  ShowMessage("\\n<Pumpkin>But there's no need to go now. I mean, I'm with everyone...")
  EndEventProcessing()
  DefineLabel("540")
  ShowMessageFace("amira_fc1",0,0,2,12)
  ShowMessage("\\n<Amira>I occasionally hear rumors about these leaflets. Apparently, they appear out of nowhere in the houses of vulnerable people.")
  EndEventProcessing()
  0()



EVENT   27
 PAGE   1
  ShowMessageFace("",0,0,2,1)
  ShowMessage("\\n<Girl>......")
  ShowMessageFace("",0,0,2,2)
  ShowMessage("The girl won't open her mouth...")
  0()



EVENT   28
 PAGE   1
  ShowMessageFace("",0,0,2,1)
  ShowMessage("\\n<Young Girl>Um, would you buy some vegetables? Despite how the village seems, they're delicious...")
  Shop(0,309,0,0,true)
  605(0,308,0,0)
  605(0,310,0,0)
  605(0,312,0,0)
  605(0,318,0,0)
  ShowMessageFace("",0,0,2,2)
  ShowMessage("\\n<Young Girl>Everything in the village is common property so commerce is forbidden, but... At this rate, I won't be able to survive...")
  0()



EVENT   29
 PAGE   1
  ShowMessageFace("",0,0,2,1)
  ShowMessage("\\n<Shopkeeper's Wife>If we leave this village, there won't be enough medicine and food for the villagers. Things here would get even worse.")
  ShowMessageFace("",0,0,2,2)
  ShowMessage("\\n<Shopkeeper's Wife>Knowing that, my husband is holding himself back. I won't ask you to understand...")
  355("actor_label_jump")
  EndEventProcessing()
  DefineLabel("66")
  ShowMessageFace("vgirl_fc1",2,0,2,3)
  ShowMessage("\\n<Vanilla>Because he doesn't want to forsake the villagers, he diligently does his business with a smile. He's a respectable person.")
  EndEventProcessing()
  DefineLabel("109")
  ShowMessageFace("kani_fc1",2,0,2,4)
  ShowMessage("\\n<Soapy>Is this village even worth going that far for...?")
  EndEventProcessing()
  0()



EVENT   30
 PAGE   1
  ShowMessageFace("",0,0,2,1)
  ShowMessage("\\n<Archbishop>I'm the archbishop, and this village's mayor. Who allowed you to enter this village?")
  ShowMessageFace("",0,0,2,2)
  ShowMessage("\\n<Archbishop>I have nothing to say to you. Now, hurry up and leave.")
  355("actor_label_jump")
  EndEventProcessing()
  DefineLabel("26")
  ShowMessageFace("iriasu_fc4",2,0,2,3)
  ShowMessage("\\n<Ilias>You will regret this remark forever as you are scorched in the fires of hell for millions of years.")
  EndEventProcessing()
  DefineLabel("525")
  ShowMessageFace("sonia_fc1",5,0,2,4)
  ShowMessage("\\n<Sonya>What's with this priest...")
  EndEventProcessing()
  DefineLabel("531")
  ShowMessageFace("saniria_fc2",0,0,2,5)
  ShowMessage("\\n<King of San Ilia>...We have already gathered criminal charges against you. Shouldn't you escape while you still can?")
  ShowMessageFace("",0,0,2,6)
  ShowMessage("\\n<Archbishop>Th-this is oppression! We will unite and fight back against your tyranny!")
  ShowMessageFace("saniria_fc2",0,0,2,7)
  ShowMessage("\\n<King of San Ilia>Ignoring the real issue won't work any more. This village won't last for much longer now...")
  ShowMessageFace("",0,0,2,8)
  ShowMessage("\\n<Archbishop>Nghh, leave, minions of the Dark Goddess!")
  EndEventProcessing()
  0()



EVENT   31
 PAGE   1
  0()



EVENT   32
 PAGE   1
  0()



EVENT   33
 PAGE   1
  ShowMessageFace("",0,0,2,1)
  ShowMessage("\\n<Archbishop's Mistress>Wh-what is it?! If you don't leave now, you'll pay for this!")
  355("actor_label_jump")
  EndEventProcessing()
  DefineLabel("5")
  ShowMessageFace("alice_fc5",3,0,2,2)
  ShowMessage("\\n<Alice>Hmph, laughable... The archbishop has an interesting definition of faith.")
  EndEventProcessing()
  DefineLabel("26")
  ShowMessageFace("iriasu_fc4",0,0,2,3)
  ShowMessage("\\n<Ilias>Yup, I've reserved a ticket to hell for him.")
  EndEventProcessing()
  DefineLabel("525")
  ShowMessageFace("sonia_fc1",5,0,2,4)
  ShowMessage("\\n<Sonya>What the hell... You've got to be kidding me!")
  EndEventProcessing()
  DefineLabel("531")
  ShowMessageFace("saniria_fc2",0,0,2,5)
  ShowMessage("\\n<King of San Ilia>I understand. We'll leave. But soon you, too, will have to leave this place.")
  EndEventProcessing()
  0()



EVENT   34
 PAGE   1
  If(1,1022,0,1,2)
   ChangeSelfSwitch("A",0)
   ShowMessageFace("",0,0,2,1)
   ShowMessage("\\n<Nun>I have nothing to speak with you about. Go to hell right now.")
   EndEventProcessing()
   0()
  EndIf()
  If(1,1022,0,5,2)
   If(2,"A",0)
    ShowMessageFace("",0,0,2,2)
    ShowMessage("\\n<Nun>Please forgive me for my previous remark. I was only being rude to hide my identity.")
    0()
   EndIf()
   ShowMessageFace("",0,0,2,3)
   ShowMessage("\\n<Nun>Thank you very much for your help.")
   EndEventProcessing()
   0()
  EndIf()
  If(1,1022,0,6,1)
   ShowMessageFace("",0,0,2,4)
   ShowMessage("\\n<Nun>We will do what we need to do here. I wish you all luck in your battles.")
   355("actor_label_jump")
   EndEventProcessing()
   DefineLabel("111")
   ShowMessageFace("suika_fc1",0,0,2,5)
   ShowMessage("\\n<Melon>When it's hard, you should eat a watermelon and do your best. ♪")
   EndEventProcessing()
   DefineLabel("122")
   ShowMessageFace("sisterlamia_fc1",3,0,2,6)
   ShowMessage("\\n<Sofia>O Goddess, please protect those of good faith...")
   EndEventProcessing()
   DefineLabel("123")
   ShowMessageFace("sisccubus_fc1",2,0,2,7)
   ShowMessage("\\n<Christie>You too, please stay safe. If you are exposed to the villagers, you will surely suffer a horrible fate...")
   ShowMessageFace("sisccubus_fc1",0,0,2,8)
   ShowMessage("\\n<Christie>...Should that happen, would you please switch places with me?")
   EndEventProcessing()
   0()
  EndIf()
  0()




EVENT   35
 PAGE   1
  250(bytes(0x04,0x08,0x6f,0x3a,0x0c,0x52,0x50,0x47,0x3a,0x3a,0x53,0x45,0x08,0x3a,0x0a,0x40,0x6e,0x61,0x6d,0x65,0x49,0x22,0x0a,0x49,0x74,0x65,0x6d,0x31,0x06,0x3a,0x06,0x45,0x54,0x3a,0x0b,0x40,0x70,0x69,0x74,0x63,0x68,0x69,0x69,0x3a,0x0c,0x40,0x76,0x6f,0x6c,0x75,0x6d,0x65,0x69,0x55))
  ChangeSelfSwitch("A",0)
  ChangeInventory_Item(24,0,0,1)
  0()
 PAGE   2
  // condition: self-switch A is ON
  0()



EVENT   36
 PAGE   1
  250(bytes(0x04,0x08,0x6f,0x3a,0x0c,0x52,0x50,0x47,0x3a,0x3a,0x53,0x45,0x08,0x3a,0x0a,0x40,0x6e,0x61,0x6d,0x65,0x49,0x22,0x0a,0x49,0x74,0x65,0x6d,0x31,0x06,0x3a,0x06,0x45,0x54,0x3a,0x0b,0x40,0x70,0x69,0x74,0x63,0x68,0x69,0x69,0x3a,0x0c,0x40,0x76,0x6f,0x6c,0x75,0x6d,0x65,0x69,0x55))
  ChangeSelfSwitch("A",0)
  ChangeInventory_Item(317,0,0,1)
  0()
 PAGE   2
  // condition: self-switch A is ON
  0()




EVENT   37
 PAGE   1
  250(bytes(0x04,0x08,0x6f,0x3a,0x0c,0x52,0x50,0x47,0x3a,0x3a,0x53,0x45,0x08,0x3a,0x0a,0x40,0x6e,0x61,0x6d,0x65,0x49,0x22,0x0a,0x49,0x74,0x65,0x6d,0x31,0x06,0x3a,0x06,0x45,0x54,0x3a,0x0b,0x40,0x70,0x69,0x74,0x63,0x68,0x69,0x69,0x3a,0x0c,0x40,0x76,0x6f,0x6c,0x75,0x6d,0x65,0x69,0x55))
  ChangeSelfSwitch("A",0)
  ChangeInventory_Item(19,0,0,1)
  0()
 PAGE   2
  // condition: self-switch A is ON
  0()



EVENT   38
 PAGE   1
  250(bytes(0x04,0x08,0x6f,0x3a,0x0c,0x52,0x50,0x47,0x3a,0x3a,0x53,0x45,0x08,0x3a,0x0a,0x40,0x6e,0x61,0x6d,0x65,0x49,0x22,0x0a,0x49,0x74,0x65,0x6d,0x31,0x06,0x3a,0x06,0x45,0x54,0x3a,0x0b,0x40,0x70,0x69,0x74,0x63,0x68,0x69,0x69,0x3a,0x0c,0x40,0x76,0x6f,0x6c,0x75,0x6d,0x65,0x69,0x55))
  ChangeSelfSwitch("A",0)
  ChangeInventory_Item(44,0,0,1)
  0()
 PAGE   2
  // condition: self-switch A is ON
  0()


EVENT   39
 PAGE   1
  250(bytes(0x04,0x08,0x6f,0x3a,0x0c,0x52,0x50,0x47,0x3a,0x3a,0x53,0x45,0x08,0x3a,0x0a,0x40,0x6e,0x61,0x6d,0x65,0x49,0x22,0x0a,0x49,0x74,0x65,0x6d,0x31,0x06,0x3a,0x06,0x45,0x54,0x3a,0x0b,0x40,0x70,0x69,0x74,0x63,0x68,0x69,0x69,0x3a,0x0c,0x40,0x76,0x6f,0x6c,0x75,0x6d,0x65,0x69,0x55))
  ChangeSelfSwitch("A",0)
  ChangeInventory_Item(432,0,0,1)
  0()
 PAGE   2
  // condition: self-switch A is ON
  0()



EVENT   40
 PAGE   1
  250(bytes(0x04,0x08,0x6f,0x3a,0x0c,0x52,0x50,0x47,0x3a,0x3a,0x53,0x45,0x08,0x3a,0x0a,0x40,0x6e,0x61,0x6d,0x65,0x49,0x22,0x0a,0x49,0x74,0x65,0x6d,0x31,0x06,0x3a,0x06,0x45,0x54,0x3a,0x0b,0x40,0x70,0x69,0x74,0x63,0x68,0x69,0x69,0x3a,0x0c,0x40,0x76,0x6f,0x6c,0x75,0x6d,0x65,0x69,0x55))
  ChangeSelfSwitch("A",0)
  ChangeInventory_Item(343,0,0,1)
  0()
 PAGE   2
  // condition: self-switch A is ON
  0()



EVENT   41
 PAGE   1
  250(bytes(0x04,0x08,0x6f,0x3a,0x0c,0x52,0x50,0x47,0x3a,0x3a,0x53,0x45,0x08,0x3a,0x0a,0x40,0x6e,0x61,0x6d,0x65,0x49,0x22,0x0a,0x49,0x74,0x65,0x6d,0x31,0x06,0x3a,0x06,0x45,0x54,0x3a,0x0b,0x40,0x70,0x69,0x74,0x63,0x68,0x69,0x69,0x3a,0x0c,0x40,0x76,0x6f,0x6c,0x75,0x6d,0x65,0x69,0x55))
  ChangeSelfSwitch("A",0)
  ChangeInventory_Item(442,0,0,1)
  0()
 PAGE   2
  // condition: self-switch A is ON
  0()


