﻿


EVENT   1
 PAGE   1
  281(1)
  250(bytes(0x04,0x08,0x6f,0x3a,0x0c,0x52,0x50,0x47,0x3a,0x3a,0x53,0x45,0x08,0x3a,0x0a,0x40,0x6e,0x61,0x6d,0x65,0x49,0x22,0x09,0x4d,0x6f,0x76,0x65,0x06,0x3a,0x06,0x45,0x54,0x3a,0x0b,0x40,0x70,0x69,0x74,0x63,0x68,0x69,0x69,0x3a,0x0c,0x40,0x76,0x6f,0x6c,0x75,0x6d,0x65,0x69,0x55))
  TeleportPlayer(0,510,28,9,4,0)
  0()



EVENT   2
 PAGE   1
  281(1)
  250(bytes(0x04,0x08,0x6f,0x3a,0x0c,0x52,0x50,0x47,0x3a,0x3a,0x53,0x45,0x08,0x3a,0x0a,0x40,0x6e,0x61,0x6d,0x65,0x49,0x22,0x09,0x4d,0x6f,0x76,0x65,0x06,0x3a,0x06,0x45,0x54,0x3a,0x0b,0x40,0x70,0x69,0x74,0x63,0x68,0x69,0x69,0x3a,0x0c,0x40,0x76,0x6f,0x6c,0x75,0x6d,0x65,0x69,0x55))
  TeleportPlayer(0,510,28,9,4,0)
  0()



EVENT   3
 PAGE   1
  281(1)
  250(bytes(0x04,0x08,0x6f,0x3a,0x0c,0x52,0x50,0x47,0x3a,0x3a,0x53,0x45,0x08,0x3a,0x0a,0x40,0x6e,0x61,0x6d,0x65,0x49,0x22,0x09,0x4d,0x6f,0x76,0x65,0x06,0x3a,0x06,0x45,0x54,0x3a,0x0b,0x40,0x70,0x69,0x74,0x63,0x68,0x69,0x69,0x3a,0x0c,0x40,0x76,0x6f,0x6c,0x75,0x6d,0x65,0x69,0x55))
  TeleportPlayer(0,510,28,9,4,0)
  0()



EVENT   4
 PAGE   1
  281(1)
  250(bytes(0x04,0x08,0x6f,0x3a,0x0c,0x52,0x50,0x47,0x3a,0x3a,0x53,0x45,0x08,0x3a,0x0a,0x40,0x6e,0x61,0x6d,0x65,0x49,0x22,0x09,0x4d,0x6f,0x76,0x65,0x06,0x3a,0x06,0x45,0x54,0x3a,0x0b,0x40,0x70,0x69,0x74,0x63,0x68,0x69,0x69,0x3a,0x0c,0x40,0x76,0x6f,0x6c,0x75,0x6d,0x65,0x69,0x55))
  TeleportPlayer(0,510,28,9,4,0)
  0()



EVENT   5
 PAGE   1
  281(1)
  250(bytes(0x04,0x08,0x6f,0x3a,0x0c,0x52,0x50,0x47,0x3a,0x3a,0x53,0x45,0x08,0x3a,0x0a,0x40,0x6e,0x61,0x6d,0x65,0x49,0x22,0x09,0x4d,0x6f,0x76,0x65,0x06,0x3a,0x06,0x45,0x54,0x3a,0x0b,0x40,0x70,0x69,0x74,0x63,0x68,0x69,0x69,0x3a,0x0c,0x40,0x76,0x6f,0x6c,0x75,0x6d,0x65,0x69,0x55))
  TeleportPlayer(0,510,28,9,4,0)
  0()



EVENT   6
 PAGE   1
  281(1)
  250(bytes(0x04,0x08,0x6f,0x3a,0x0c,0x52,0x50,0x47,0x3a,0x3a,0x53,0x45,0x08,0x3a,0x0a,0x40,0x6e,0x61,0x6d,0x65,0x49,0x22,0x09,0x4d,0x6f,0x76,0x65,0x06,0x3a,0x06,0x45,0x54,0x3a,0x0b,0x40,0x70,0x69,0x74,0x63,0x68,0x69,0x69,0x3a,0x0c,0x40,0x76,0x6f,0x6c,0x75,0x6d,0x65,0x69,0x55))
  TeleportPlayer(0,510,28,9,4,0)
  0()



EVENT   7
 PAGE   1
  281(1)
  250(bytes(0x04,0x08,0x6f,0x3a,0x0c,0x52,0x50,0x47,0x3a,0x3a,0x53,0x45,0x08,0x3a,0x0a,0x40,0x6e,0x61,0x6d,0x65,0x49,0x22,0x09,0x4d,0x6f,0x76,0x65,0x06,0x3a,0x06,0x45,0x54,0x3a,0x0b,0x40,0x70,0x69,0x74,0x63,0x68,0x69,0x69,0x3a,0x0c,0x40,0x76,0x6f,0x6c,0x75,0x6d,0x65,0x69,0x55))
  TeleportPlayer(0,510,28,9,4,0)
  0()



EVENT   8
 PAGE   1
  ShowMessageFace("",0,0,2,1)
  ShowMessage("【巫女】")
  ShowMessage("キツネに比べ、タヌキは影が薄い存在……")
  ShowMessage("ゆえに四神社の中でも、当神社が最も寂れてしまっています。")
  0()

EVENT   9
 PAGE   1
  ChangeSelfSwitch("A",0)
  ShowMessageFace("youko_fc1",2,0,2,1)
  ShowMessage("【こん】")
  ShowMessage("うぇ～ん！")
  If(0,6,0)
   ShowMessageFace("sonia_fc2",2,0,2,2)
   ShowMessage("【ソニア】")
   ShowMessage("狸神社なのに、きつねちゃんが泣いてる……")
   ShowMessage("何があったのかな？")
   0()
  Else()
   ShowMessageFace("ruka_fc1",0,0,2,3)
   ShowMessage("【ルカ】")
   ShowMessage("いったい、何があったんだろう……")
   0()
  EndIf()
  If(4,53,0)
   ShowMessageFace("slime_fc1",2,0,2,4)
   ShowMessage("【ライム】")
   ShowMessage("おはなし、聞いてあげようよ！")
   0()
  EndIf()
  0()
 PAGE   2
  // condition: self-switch A is ON
  0()



EVENT   10
 PAGE   1
  If(1,1059,0,0,0)
   ChangeVariable(1059,1059,0,0,1)
   PictureDisplay(5,"80_youko_st03",0,0,0,0,100,100,0,0)
   PictureMove(5,null,0,0,0,0,100,100,255,0,30,true)
   ShowMessageFace("youko_fc1",2,0,2,1)
   ShowMessage("【こん】")
   ShowMessage("うぇ～ん！")
   If(0,6,0)
    ShowMessageFace("sonia_fc1",4,0,2,2)
    ShowMessage("【ソニア】")
    ShowMessage("どうしたの？　お姉さんに話してごらん？")
    0()
   Else()
    ShowMessageFace("ruka_fc1",0,0,2,3)
    ShowMessage("【ルカ】")
    ShowMessage("どうしたんだい？")
    0()
   EndIf()
   If(4,53,0)
    ShowMessageFace("slime_fc1",0,0,2,4)
    ShowMessage("【ライム】")
    ShowMessage("こまった時は、おたがいさま！")
    0()
   EndIf()
   ShowMessageFace("youko_fc1",2,0,2,5)
   ShowMessage("【こん】")
   ShowMessage("あのね、あのね……")
   ShowMessage("先週、たぬちゃんがね……")
   221()
   Wait(60)
   PictureClear(5)
   211(0)
   205(0,bytes(0x04,0x08,0x6f,0x3a,0x13,0x52,0x50,0x47,0x3a,0x3a,0x4d,0x6f,0x76,0x65,0x52,0x6f,0x75,0x74,0x65,0x09,0x3a,0x0c,0x40,0x72,0x65,0x70,0x65,0x61,0x74,0x46,0x3a,0x0f,0x40,0x73,0x6b,0x69,0x70,0x70,0x61,0x62,0x6c,0x65,0x46,0x3a,0x0a,0x40,0x77,0x61,0x69,0x74,0x54,0x3a,0x0a,0x40,0x6c,0x69,0x73,0x74,0x5b,0x07,0x6f,0x3a,0x15,0x52,0x50,0x47,0x3a,0x3a,0x4d,0x6f,0x76,0x65,0x43,0x6f,0x6d,0x6d,0x61,0x6e,0x64,0x07,0x3a,0x0a,0x40,0x63,0x6f,0x64,0x65,0x69,0x17,0x3a,0x10,0x40,0x70,0x61,0x72,0x61,0x6d,0x65,0x74,0x65,0x72,0x73,0x5b,0x00,0x6f,0x3b,0x0a,0x07,0x3b,0x0b,0x69,0x00,0x3b,0x0c,0x5b,0x00))
   ChangeSwitch(31,31,0)
   241(bytes(0x04,0x08,0x6f,0x3a,0x0d,0x52,0x50,0x47,0x3a,0x3a,0x42,0x47,0x4d,0x08,0x3a,0x0a,0x40,0x6e,0x61,0x6d,0x65,0x49,0x22,0x13,0x73,0x63,0x65,0x6e,0x65,0x5f,0x6f,0x64,0x61,0x79,0x61,0x6b,0x61,0x31,0x06,0x3a,0x06,0x45,0x54,0x3a,0x0c,0x40,0x76,0x6f,0x6c,0x75,0x6d,0x65,0x69,0x69,0x3a,0x0b,0x40,0x70,0x69,0x74,0x63,0x68,0x69,0x69))
   222()
   PictureDisplay(5,"80_youko_st02",0,0,-150,0,100,100,0,0)
   PictureDisplay(6,"80_mametanuki_st03",0,0,150,0,100,100,0,0)
   PictureMove(5,null,0,0,-150,0,100,100,255,0,30,false)
   PictureMove(6,null,0,0,150,0,100,100,255,0,30,true)
   ShowMessageFace("youko_fc1",0,0,2,6)
   ShowMessage("【こん】")
   ShowMessage("や～い、や～い！")
   ShowMessage("臆病者のぽんぽこたぬき～！")
   ShowMessageFace("mametanuki_fc1",2,0,2,7)
   ShowMessage("【たぬ】")
   ShowMessage("たぬは臆病者じゃないもん！")
   ShowMessageFace("youko_fc1",0,0,2,8)
   ShowMessage("【こん】")
   ShowMessage("それじゃあ、オロチ様の洞で秘宝を取ってこられる？")
   ShowMessage("臆病じゃなかったら、出来るよねぇ？")
   ShowMessageFace("mametanuki_fc1",0,0,2,9)
   ShowMessage("【たぬ】")
   ShowMessage("それくらい、ラクショーだもん！")
   PictureClear(5)
   PictureClear(6)
   Wait(30)
   205(11,bytes(0x04,0x08,0x6f,0x3a,0x13,0x52,0x50,0x47,0x3a,0x3a,0x4d,0x6f,0x76,0x65,0x52,0x6f,0x75,0x74,0x65,0x09,0x3a,0x0c,0x40,0x72,0x65,0x70,0x65,0x61,0x74,0x46,0x3a,0x0f,0x40,0x73,0x6b,0x69,0x70,0x70,0x61,0x62,0x6c,0x65,0x46,0x3a,0x0a,0x40,0x77,0x61,0x69,0x74,0x54,0x3a,0x0a,0x40,0x6c,0x69,0x73,0x74,0x5b,0x1c,0x6f,0x3a,0x15,0x52,0x50,0x47,0x3a,0x3a,0x4d,0x6f,0x76,0x65,0x43,0x6f,0x6d,0x6d,0x61,0x6e,0x64,0x07,0x3a,0x0a,0x40,0x63,0x6f,0x64,0x65,0x69,0x2a,0x3a,0x10,0x40,0x70,0x61,0x72,0x61,0x6d,0x65,0x74,0x65,0x72,0x73,0x5b,0x00,0x6f,0x3b,0x0a,0x07,0x3b,0x0b,0x69,0x22,0x3b,0x0c,0x5b,0x06,0x69,0x0a,0x6f,0x3b,0x0a,0x07,0x3b,0x0b,0x69,0x23,0x3b,0x0c,0x5b,0x06,0x69,0x0a,0x6f,0x3b,0x0a,0x07,0x3b,0x0b,0x69,0x06,0x3b,0x0c,0x5b,0x00,0x6f,0x3b,0x0a,0x07,0x3b,0x0b,0x69,0x06,0x3b,0x0c,0x5b,0x00,0x6f,0x3b,0x0a,0x07,0x3b,0x0b,0x69,0x06,0x3b,0x0c,0x5b,0x00,0x6f,0x3b,0x0a,0x07,0x3b,0x0b,0x69,0x07,0x3b,0x0c,0x5b,0x00,0x6f,0x3b,0x0a,0x07,0x3b,0x0b,0x69,0x07,0x3b,0x0c,0x5b,0x00,0x6f,0x3b,0x0a,0x07,0x3b,0x0b,0x69,0x07,0x3b,0x0c,0x5b,0x00,0x6f,0x3b,0x0a,0x07,0x3b,0x0b,0x69,0x07,0x3b,0x0c,0x5b,0x00,0x6f,0x3b,0x0a,0x07,0x3b,0x0b,0x69,0x07,0x3b,0x0c,0x5b,0x00,0x6f,0x3b,0x0a,0x07,0x3b,0x0b,0x69,0x07,0x3b,0x0c,0x5b,0x00,0x6f,0x3b,0x0a,0x07,0x3b,0x0b,0x69,0x07,0x3b,0x0c,0x5b,0x00,0x6f,0x3b,0x0a,0x07,0x3b,0x0b,0x69,0x07,0x3b,0x0c,0x5b,0x00,0x6f,0x3b,0x0a,0x07,0x3b,0x0b,0x69,0x07,0x3b,0x0c,0x5b,0x00,0x6f,0x3b,0x0a,0x07,0x3b,0x0b,0x69,0x09,0x3b,0x0c,0x5b,0x00,0x6f,0x3b,0x0a,0x07,0x3b,0x0b,0x69,0x09,0x3b,0x0c,0x5b,0x00,0x6f,0x3b,0x0a,0x07,0x3b,0x0b,0x69,0x09,0x3b,0x0c,0x5b,0x00,0x6f,0x3b,0x0a,0x07,0x3b,0x0b,0x69,0x07,0x3b,0x0c,0x5b,0x00,0x6f,0x3b,0x0a,0x07,0x3b,0x0b,0x69,0x07,0x3b,0x0c,0x5b,0x00,0x6f,0x3b,0x0a,0x07,0x3b,0x0b,0x69,0x07,0x3b,0x0c,0x5b,0x00,0x6f,0x3b,0x0a,0x07,0x3b,0x0b,0x69,0x2c,0x3b,0x0c,0x5b,0x00,0x6f,0x3b,0x0a,0x07,0x3b,0x0b,0x69,0x00,0x3b,0x0c,0x5b,0x00))
   221()
   Wait(60)
   211(1)
   205(0,bytes(0x04,0x08,0x6f,0x3a,0x13,0x52,0x50,0x47,0x3a,0x3a,0x4d,0x6f,0x76,0x65,0x52,0x6f,0x75,0x74,0x65,0x09,0x3a,0x0c,0x40,0x72,0x65,0x70,0x65,0x61,0x74,0x46,0x3a,0x0f,0x40,0x73,0x6b,0x69,0x70,0x70,0x61,0x62,0x6c,0x65,0x46,0x3a,0x0a,0x40,0x77,0x61,0x69,0x74,0x54,0x3a,0x0a,0x40,0x6c,0x69,0x73,0x74,0x5b,0x07,0x6f,0x3a,0x15,0x52,0x50,0x47,0x3a,0x3a,0x4d,0x6f,0x76,0x65,0x43,0x6f,0x6d,0x6d,0x61,0x6e,0x64,0x07,0x3a,0x0a,0x40,0x63,0x6f,0x64,0x65,0x69,0x1e,0x3a,0x10,0x40,0x70,0x61,0x72,0x61,0x6d,0x65,0x74,0x65,0x72,0x73,0x5b,0x00,0x6f,0x3b,0x0a,0x07,0x3b,0x0b,0x69,0x00,0x3b,0x0c,0x5b,0x00))
   ChangeSwitch(31,31,1)
   222()
   241(bytes(0x04,0x08,0x6f,0x3a,0x0d,0x52,0x50,0x47,0x3a,0x3a,0x42,0x47,0x4d,0x08,0x3a,0x0a,0x40,0x6e,0x61,0x6d,0x65,0x49,0x22,0x0a,0x6d,0x75,0x72,0x61,0x37,0x06,0x3a,0x06,0x45,0x54,0x3a,0x0c,0x40,0x76,0x6f,0x6c,0x75,0x6d,0x65,0x69,0x69,0x3a,0x0b,0x40,0x70,0x69,0x74,0x63,0x68,0x69,0x69))
   PictureDisplay(5,"80_youko_st03",0,0,0,0,100,100,0,0)
   PictureMove(5,null,0,0,0,0,100,100,255,0,30,true)
   ShowMessageFace("youko_fc1",2,0,2,10)
   ShowMessage("【こん】")
   ShowMessage("それで、たぬちゃんが一人でオロチ様の洞に行ってね……")
   ShowMessage("一週間経つのに、戻ってこないの……")
   ShowMessageFace("youko_fc1",2,0,2,11)
   ShowMessage("【こん】")
   ShowMessage("あたしのせいだよ～！　うわ～ん！")
   If(0,2317,1)
    If(0,4,0)
     ShowMessageFace("alice_fc5",0,0,2,12)
     ShowMessage("【アリス】")
     ShowMessage("オロチの洞か……村から北東に見える洞窟だな。")
     ShowMessage("あそこにはヤマタノオロチが眠っているはず……")
     0()
    EndIf()
    If(0,5,0)
     ShowMessageFace("iriasu_fc4",2,0,2,13)
     ShowMessage("【イリアス】")
     ShowMessage("オロチの洞……村の北東に見える、あの洞窟ですね。")
     ShowMessage("あそこには忌まわしい妖魔ヤマタノオロチがいるはずです。")
     0()
    EndIf()
    0()
   Else()
    If(0,4,0)
     ShowMessageFace("alice_fc5",0,0,2,14)
     ShowMessage("【アリス】")
     ShowMessage("ヤマタノオロチはすでに倒したが……")
     ShowMessage("あの洞には、他にもタチの悪い魔物がうろついているな。")
     0()
    EndIf()
    If(0,5,0)
     ShowMessageFace("iriasu_fc4",2,0,2,15)
     ShowMessage("【イリアス】")
     ShowMessage("ヤマタノオロチはすでに倒しましたが……")
     ShowMessage("あの洞には、他にもタチの悪い魔物がうろついていますね。")
     0()
    EndIf()
    0()
   EndIf()
   If(4,53,0)
    ShowMessageFace("slime_fc1",2,0,2,16)
    ShowMessage("【ライム】")
    ShowMessage("助けにいこうよ！")
    0()
   EndIf()
   If(0,2317,1)
    ShowMessageFace("youko_fc1",2,0,2,17)
    ShowMessage("【こん】")
    ShowMessage("たぬちゃん、ヤマタノオロチ様においしく食べられちゃったんだ～！")
    ShowMessage("コロコロ太ってて、おいしそうだから～！")
    0()
   Else()
    ShowMessageFace("youko_fc1",2,0,2,18)
    ShowMessage("【こん】")
    ShowMessage("たぬちゃん、悪い魔物においしく食べられちゃったんだ～！")
    ShowMessage("コロコロ太ってて、おいしそうだから～！")
    0()
   EndIf()
   ShowMessageFace("youko_fc1",2,0,2,19)
   ShowMessage("【こん】")
   ShowMessage("うわ～ん、あたしのせいだよ～！")
   If(0,6,0)
    ShowMessageFace("sonia_fc1",4,0,2,20)
    ShowMessage("【ソニア】")
    ShowMessage("ほら、泣かないで。")
    ShowMessage("あたし達が、オロチの洞に探しにいってあげるから。")
    0()
   Else()
    ShowMessageFace("ruka_fc1",0,0,2,21)
    ShowMessage("【ルカ】")
    ShowMessage("分かった、僕達が探しに行くよ。")
    0()
   EndIf()
   ShowMessageFace("youko_fc1",2,0,2,22)
   ShowMessage("【こん】")
   ShowMessage("ぐすっ……おねがい、します……")
   If(0,2317,1)
    If(0,4,0)
     ShowMessageFace("alice_fc5",0,0,2,23)
     ShowMessage("【アリス】")
     ShowMessage("探しに行く事に異論はない……")
     ShowMessage("が、ヤマタノオロチは相当に強力な妖魔だぞ。")
     ShowMessageFace("alice_fc5",0,0,2,24)
     ShowMessage("【アリス】")
     ShowMessage("奴には会わずに、タヌキを見つけるのが理想的だな。")
     ShowMessage("よく心しておけ、ヤマタノオロチとは戦うなよ。")
     0()
    EndIf()
    If(0,5,0)
     ShowMessageFace("iriasu_fc4",2,0,2,25)
     ShowMessage("【イリアス】")
     ShowMessage("仕方ありません、行きますか……")
     ShowMessage("ですが、ヤマタノオロチは荷が重すぎる妖魔。")
     ShowMessageFace("iriasu_fc4",2,0,2,26)
     ShowMessage("【イリアス】")
     ShowMessage("見つからずに、タヌキを発見するのが理想的です。")
     ShowMessage("くれぐれも、ヤマタノオロチとは戦わないように……")
     0()
    EndIf()
    If(0,2149,0)
     ShowMessageFace("ashel_fc1",0,0,2,27)
     ShowMessage("【アシェル】")
     ShowMessage("お嬢、これをことわざで言うと……？")
     ShowMessageFace("bonny_fc1",0,0,2,28)
     ShowMessage("【ボニー】")
     ShowMessage("君子危うきに近寄らず、だろう！")
     ShowMessage("なんでいちいちことわざを仕込む！　おばあちゃんか！")
     ShowMessageFace("ashel_fc1",0,0,2,29)
     ShowMessage("【アシェル】")
     ShowMessage("海賊女王になるため、大切な事を覚えてもらってるんです。")
     ShowMessage("ちゃんと覚えてて偉いですね、こんぶアメどうぞ。")
     ShowMessageFace("bonny_fc1",1,0,2,30)
     ShowMessage("【ボニー】")
     ShowMessage("わ～い、こんぶアメだ！")
     0()
    EndIf()
    0()
   EndIf()
   ShowMessageFace("ruka_fc1",0,0,2,31)
   ShowMessage("【ルカ】")
   ShowMessage("よし、オロチの洞に行こう！")
   PictureClear(5)
   EndEventProcessing()
   0()
  EndIf()
  If(1,1059,0,1,0)
   PictureDisplay(5,"80_youko_st03",0,0,0,0,100,100,0,0)
   PictureMove(5,null,0,0,0,0,100,100,255,0,30,true)
   ShowMessageFace("youko_fc1",2,0,2,32)
   ShowMessage("【こん】")
   ShowMessage("オロチ様の洞は、村の北東だよ……ぐすっ……")
   ShowMessage("どうか、たぬちゃんを助けてあげて……")
   If(4,53,0)
    ShowMessageFace("slime_fc1",0,0,2,33)
    ShowMessage("【ライム】")
    ShowMessage("大丈夫だよ。")
    ShowMessage("みんなで、助けに行くからね！")
    0()
   EndIf()
   PictureClear(5)
   EndEventProcessing()
   0()
  EndIf()
  If(1,1059,0,2,0)
   PictureDisplay(5,"80_youko_st01",0,0,-150,0,100,100,0,0)
   PictureDisplay(6,"80_mametanuki_st01",0,0,150,0,100,100,0,0)
   PictureMove(5,null,0,0,-150,0,100,100,255,0,30,false)
   PictureMove(6,null,0,0,150,0,100,100,255,0,30,true)
   ShowMessageFace("youko_fc1",0,0,2,34)
   ShowMessage("【こん】")
   ShowMessage("ありがとう！")
   ShowMessage("たぬちゃん、無事に戻ってきたよ！")
   If(4,204,0)
    ShowMessageFace("umiusi_k_fc1",0,0,2,35)
    ShowMessage("【ステイシー】")
    ShowMessage("ふふっ、良かったですね♪")
    0()
   EndIf()
   If(0,6,0)
    ShowMessageFace("sonia_fc1",0,0,2,36)
    ShowMessage("【ソニア】")
    ShowMessage("これからは、危ない事しちゃダメよ。")
    0()
   Else()
    ShowMessageFace("ruka_fc1",0,0,2,37)
    ShowMessage("【ルカ】")
    ShowMessage("これからは気をつけてね。")
    0()
   EndIf()
   ShowMessageFace("mametanuki_fc1",0,0,2,38)
   ShowMessage("【たぬ】")
   ShowMessage("うん、気をつけるよ！")
   If(4,53,0)
    ShowMessageFace("slime_fc1",0,0,2,39)
    ShowMessage("【ライム】")
    ShowMessage("ルカと初めて会った時のことを思い出しちゃった……")
    ShowMessage("泣いてるあたしを、助けてくれたんだよね。")
    0()
   EndIf()
   PictureClear(5)
   PictureClear(6)
   ShowMessageFace("durahan_fc1",1,0,2,40)
   ShowMessage("【アーサー】")
   ShowMessage("これで、狸神社の一件もめでたく解決だな……")
   ChangeVariable(1059,1059,0,0,3)
   If(1,1057,0,3,1)
    If(1,1058,0,1,1)
     If(1,1060,0,1,1)
      If(1,1059,0,3,1)
       ChangeVariable(1055,1055,0,0,3)
       ShowMessageFace("ruka_fc1",0,0,2,41)
       ShowMessage("【ルカ】")
       ShowMessage("これで、四大神社の困り事を全部解決したね。")
       ShowMessage("村長のところに報告に行こう！")
       EndEventProcessing()
       0()
      EndIf()
      0()
     EndIf()
     0()
    EndIf()
    0()
   EndIf()
   ShowMessageFace("ruka_fc1",0,0,2,42)
   ShowMessage("【ルカ】")
   ShowMessage("それじゃあ、他の神社に向かおう！")
   EndEventProcessing()
   0()
  EndIf()
  0()
 PAGE   2
  // condition: variable 1059 >= 3
  PictureDisplay(5,"80_youko_st01",0,0,-150,0,100,100,0,0)
  PictureDisplay(6,"80_mametanuki_st01",0,0,150,0,100,100,0,0)
  PictureMove(5,null,0,0,-150,0,100,100,255,0,30,false)
  PictureMove(6,null,0,0,150,0,100,100,255,0,30,true)
  ShowMessageFace("youko_fc1",0,0,2,1)
  ShowMessage("【こん】")
  ShowMessage("ぽんぽこたぬき～！　臆病たぬき～！")
  ShowMessageFace("mametanuki_fc1",0,0,2,2)
  ShowMessage("【たぬ】")
  ShowMessage("こんこんきつね～！　腹黒きつね～！")
  If(0,6,0)
   ShowMessageFace("sonia_fc4",0,0,2,3)
   ShowMessage("【ソニア】")
   ShowMessage("……………………")
   0()
  Else()
   ShowMessageFace("ruka_fc1",0,0,2,4)
   ShowMessage("【ルカ】")
   ShowMessage("……………………")
   0()
  EndIf()
  PictureClear(5)
  PictureClear(6)
  0()



EVENT   11
 PAGE   1
  // condition: switch 31 is ON
  0()
 PAGE   2
  // condition: variable 1059 >= 2
  PictureDisplay(5,"80_mametanuki_st01",0,0,0,0,100,100,0,0)
  PictureMove(5,null,0,0,0,0,100,100,255,0,30,true)
  ShowMessageFace("mametanuki_fc1",0,0,2,1)
  ShowMessage("【たぬ】")
  ShowMessage("助けてくれて、ありがとう！")
  PictureClear(5)
  0()
 PAGE   3
  // condition: variable 1059 >= 3
  PictureDisplay(5,"80_youko_st01",0,0,-150,0,100,100,0,0)
  PictureDisplay(6,"80_mametanuki_st01",0,0,150,0,100,100,0,0)
  PictureMove(5,null,0,0,-150,0,100,100,255,0,30,false)
  PictureMove(6,null,0,0,150,0,100,100,255,0,30,true)
  ShowMessageFace("youko_fc1",0,0,2,1)
  ShowMessage("【こん】")
  ShowMessage("ぽんぽこたぬき～！　臆病たぬき～！")
  ShowMessageFace("mametanuki_fc1",0,0,2,2)
  ShowMessage("【たぬ】")
  ShowMessage("こんこんきつね～！　腹黒きつね～！")
  If(0,6,0)
   ShowMessageFace("sonia_fc4",0,0,2,3)
   ShowMessage("【ソニア】")
   ShowMessage("……………………")
   0()
  Else()
   ShowMessageFace("ruka_fc1",0,0,2,4)
   ShowMessage("【ルカ】")
   ShowMessage("……………………")
   0()
  EndIf()
  PictureClear(5)
  PictureClear(6)
  0()


