﻿


EVENT   1
 PAGE   1
  // condition: switch 1053 is ON
  ShowMessageFace("slime_fc1",0,0,2,1)
  ShowMessage("【ライム】")
  ShowMessage("ブーメラン♪　ブーメラン♪")
  If(2,"A",1)
   ChangeSelfSwitch("A",0)
   ShowMessageFace("slime_fc1",0,0,2,2)
   ShowMessage("【ライム】")
   ShowMessage("すごいおさかな、みつけたよ！")
   250(bytes(0x04,0x08,0x6f,0x3a,0x0c,0x52,0x50,0x47,0x3a,0x3a,0x53,0x45,0x08,0x3a,0x0a,0x40,0x6e,0x61,0x6d,0x65,0x49,0x22,0x0a,0x49,0x74,0x65,0x6d,0x31,0x06,0x3a,0x06,0x45,0x54,0x3a,0x0b,0x40,0x70,0x69,0x74,0x63,0x68,0x69,0x69,0x3a,0x0c,0x40,0x76,0x6f,0x6c,0x75,0x6d,0x65,0x69,0x55))
   ChangeInventory_Item(323,0,0,1)
   0()
  Else()
   0()
  EndIf()
  0()



EVENT   2
 PAGE   1
  // condition: switch 4 is ON
  If(2,"A",1)
   ChangeSelfSwitch("A",0)
   ShowMessageFace("alice_fc5",0,0,2,1)
   ShowMessage("【アリス】")
   ShowMessage("しかし、グランドノア城に近付けば近付くほど淫気が濃くなるな……")
   ShowMessage("元凶はやはり、あの城にいえると見える。")
   ShowMessageFace("ruka_fc1",0,0,2,2)
   ShowMessage("【ルカ】")
   ShowMessage("やっぱり王妃なのかな……")
   ShowMessage("いったい何者なんだろう。")
   ShowMessageFace("alice_fc5",2,0,2,3)
   ShowMessage("【アリス】")
   ShowMessage("アリ娘を従えている以上、クィーンアントより他にあるまい。")
   ShowMessage("無論、それを指示したのは母上……いや、魔王だ。")
   ShowMessageFace("alice_fc5",3,0,2,4)
   ShowMessage("【アリス】")
   ShowMessage("……ここに来るまでは、そう考えていたのだがな。")
   ShowMessageFace("ruka_fc1",0,0,2,5)
   ShowMessage("【ルカ】")
   ShowMessage("じゃあ、今は違うのか？")
   ShowMessageFace("alice_fc5",0,0,2,6)
   ShowMessage("【アリス】")
   ShowMessage("この強烈な淫気は、ゴルド地域全てを覆っている。")
   ShowMessage("グランゴルド城から、国境付近のゴッダールに届くほどだ。")
   ShowMessageFace("alice_fc5",0,0,2,7)
   ShowMessage("【アリス】")
   ShowMessage("一国全てに淫気を行き渡らせるほどの芸当……")
   ShowMessage("いかに強力な虫魔とは言え、クィーンアントに可能なのか？")
   ShowMessageFace("alice_fc5",0,0,2,8)
   ShowMessage("【アリス】")
   ShowMessage("いや……間違いなく奴の能力を超えている。")
   ShowMessage("これを行っているのは、もっと強力な妖魔に違いない。")
   ShowMessageFace("alice_fc5",0,0,2,9)
   ShowMessage("【アリス】")
   ShowMessage("だとすれば、思い浮かぶのは――")
   ShowMessageFace("ruka_fc1",0,0,2,10)
   ShowMessage("【ルカ】")
   ShowMessage("リリス三姉妹か……！")
   ShowMessageFace("alice_fc5",2,0,2,11)
   ShowMessage("【アリス】")
   ShowMessage("この戦い、予想以上に熾烈なものとなるかもしれん。")
   ShowMessage("気を引き締めるのだぞ、ルカよ……")
   ShowMessageFace("ruka_fc1",0,0,2,12)
   ShowMessage("【ルカ】")
   ShowMessage("ああ！")
   ShowMessageFace("",0,0,2,13)
   ShowMessage("下手をすれば、クィーンアント以上の敵と戦う事になる――")
   ShowMessage("ここから先、一刻も気を抜けないだろう。")
   ChangeSwitch(2191,2191,0)
   0()
  Else()
   ShowMessageFace("alice_fc5",0,0,2,14)
   ShowMessage("【アリス】")
   ShowMessage("激戦が控えているからこそ、休息は大切にな。")
   ShowMessage("休むべき時に休むのも、戦いのひとつだぞ。")
   0()
  EndIf()
  0()
 PAGE   2
  // condition: switch 5 is ON
  If(2,"B",1)
   ChangeSelfSwitch("B",0)
   ShowMessageFace("iriasu_fc4",2,0,2,1)
   ShowMessage("【イリアス】")
   ShowMessage("グランドノア城に近付けば近付くほど、淫気が濃くなりますね……")
   ShowMessage("やはり元凶がいるのは、あの城なのでしょう。")
   ShowMessageFace("ruka_fc1",0,0,2,2)
   ShowMessage("【ルカ】")
   ShowMessage("やっぱり王妃なのかな……")
   ShowMessage("いったい何者なんだろう。")
   ShowMessageFace("iriasu_fc4",2,0,2,3)
   ShowMessage("【イリアス】")
   ShowMessage("アリ娘を従えている以上、クィーンアントの仕業でしょう。")
   ShowMessage("無論、裏で糸を引いているのは魔王であるはずです……")
   ShowMessageFace("iriasu_fc4",2,0,2,4)
   ShowMessage("【イリアス】")
   ShowMessage("……などと、ここに来るまでは考えていました。")
   ShowMessageFace("ruka_fc1",0,0,2,5)
   ShowMessage("【ルカ】")
   ShowMessage("じゃあ、今は違うんですか？")
   ShowMessageFace("iriasu_fc4",2,0,2,6)
   ShowMessage("【イリアス】")
   ShowMessage("この強烈な淫気は、ゴルド地域全てを覆っています。")
   ShowMessage("グランゴルド城から、国境付近のゴッダールに達するほどですよ。")
   ShowMessageFace("iriasu_fc4",2,0,2,7)
   ShowMessage("【イリアス】")
   ShowMessage("一国全てに淫気を行き渡らせるなど……")
   ShowMessage("クィーンアントは強力な虫魔ですが、そこまでの芸当は不可能です。")
   ShowMessageFace("iriasu_fc4",7,0,2,8)
   ShowMessage("【イリアス】")
   ShowMessage("これを行っているのは、もっと強力な妖魔です。")
   ShowMessage("だとすれば、思い浮かぶのは――")
   ShowMessageFace("ruka_fc1",0,0,2,9)
   ShowMessage("【ルカ】")
   ShowMessage("リリス三姉妹か……！")
   ShowMessageFace("iriasu_fc4",7,0,2,10)
   ShowMessage("【イリアス】")
   ShowMessage("この戦い、予想以上に熾烈なものとなるでしょう。")
   ShowMessage("気を引き締めるのですよ、ルカ……")
   ShowMessageFace("ruka_fc1",0,0,2,11)
   ShowMessage("【ルカ】")
   ShowMessage("ああ！")
   ShowMessageFace("",0,0,2,12)
   ShowMessage("下手をすれば、クィーンアント以上の敵と戦う事になる――")
   ShowMessage("ここから先、一刻も気を抜けないだろう。")
   ChangeSwitch(2191,2191,0)
   0()
  Else()
   ShowMessageFace("iriasu_fc4",2,0,2,13)
   ShowMessage("【イリアス】")
   ShowMessage("この状況、どこかで覚えがあるのですが……")
   ShowMessage("ああ、ちっちゃなおつむでは思い出せない……")
   EndEventProcessing()
   0()
  EndIf()
  0()



EVENT   3
 PAGE   1
  // condition: switch 6 is ON
  If(2,"A",1)
   ChangeSelfSwitch("A",0)
   ShowMessageFace("sonia_fc2",2,0,2,1)
   ShowMessage("【ソニア】")
   ShowMessage("ねぇ、ルカ……")
   ShowMessage("私って、冒険の役に立ってる？")
   ShowChoices(strings("大いに頼りになる","まあ普通","すでに待機メンバー"),0)
   IfPlayerPicksChoice(0,null)
    ShowMessageFace("ruka_fc1",0,0,2,2)
    ShowMessage("【ルカ】")
    ShowMessage("何を言い出すんだ……とっても頼りになるよ。")
    ShowMessageFace("sonia_fc1",4,0,2,3)
    ShowMessage("【ソニア】")
    ShowMessage("そう言ってくれると、嬉しいんだけど……")
    ShowMessage("でも、他のみんなに比べて力不足を感じるのよ。")
    0()
   IfPlayerPicksChoice(1,null)
    ShowMessageFace("ruka_fc1",0,0,2,4)
    ShowMessage("【ルカ】")
    ShowMessage("まあ、普通かな？")
    ShowMessageFace("sonia_fc1",4,0,2,5)
    ShowMessage("【ソニア】")
    ShowMessage("普通か……足は引っ張ってないって事よね？")
    ShowMessage("でも、他のみんなに比べて力不足を感じるのよ。")
    0()
   IfPlayerPicksChoice(2,null)
    ShowMessageFace("ruka_fc1",0,0,2,6)
    ShowMessage("【ルカ】")
    ShowMessage("あれ？　ポケット魔王城から声が聞こえる……")
    ShowMessageFace("sonia_fc3",2,0,2,7)
    ShowMessage("【ソニア】")
    ShowMessage("ひどっ！")
    ShowMessageFace("sonia_fc2",2,0,2,8)
    ShowMessage("【ソニア】")
    ShowMessage("そういうわけで、もはや前線から脱落してるし……")
    ShowMessage("他のみんなに比べて力不足を感じるのよ。")
    0()
   404()
   ShowMessageFace("sonia_fc2",2,0,2,9)
   ShowMessage("【ソニア】")
   ShowMessage("みんなと違って、私はただの人間だし……")
   ShowMessage("だから、力も魔力も大した事ないし……")
   ShowMessageFace("sonia_fc4",0,0,2,10)
   ShowMessage("【ソニア】")
   ShowMessage("冒険のスケールが大きくなるにつれて、差が開いていく一方。")
   ShowMessage("自分でも、息切れ感や頭打ち感が否定できないのよね……")
   If(0,4,0)
    ShowMessageFace("alice_fc5",0,0,2,11)
    ShowMessage("【アリス】")
    ShowMessage("そう思い詰めるな。")
    ShowMessage("貴様は人間にしては、よくやっている方だ。")
    0()
   EndIf()
   If(0,5,0)
    ShowMessageFace("iriasu_fc4",0,0,2,12)
    ShowMessage("【イリアス】")
    ShowMessage("思い詰めてはいけません。")
    ShowMessage("あなたはそれでも、立派に私に尽くしているではないですか。")
    0()
   EndIf()
   ShowMessageFace("ruka_fc1",0,0,2,13)
   ShowMessage("【ルカ】")
   ShowMessage("僕の父さんやラザロおじさん、それにソニアの母さんも……")
   ShowMessage("みんな、人間の身で戦い抜いたんだ。")
   ShowMessageFace("ruka_fc1",0,0,2,14)
   ShowMessage("【ルカ】")
   ShowMessage("だから、人間とか魔物とか関係ないよ。")
   ShowMessageFace("sonia_fc1",4,0,2,15)
   ShowMessage("【ソニア】")
   ShowMessage("うん、そうよね……")
   ShowMessage("決めた！　もうウジウジ言わない！")
   ShowMessageFace("sonia_fc1",3,0,2,16)
   ShowMessage("【ソニア】")
   ShowMessage("ここまで来たら、やれる事をやるしかないんだから！")
   ShowMessage("みんなのために、ガンガン行くよ！")
   0()
  Else()
   ShowMessageFace("sonia_fc1",4,0,2,17)
   ShowMessage("【ソニア】")
   ShowMessage("心配かけてごめんね……もう、ウジウジ言わないから。")
   ShowMessageFace("sonia_fc1",3,0,2,18)
   ShowMessage("【ソニア】")
   ShowMessage("ここまで来たら、やれる事をやるしかないんだから！")
   ShowMessage("みんなのために、ガンガン行くよ！")
   0()
  EndIf()
  0()



EVENT   4
 PAGE   1
  // condition: switch 1056 is ON
  ShowMessageFace("inp_fc1",0,0,2,1)
  ShowMessage("【ラミ】")
  ShowMessage("余ってた線香花火、ここで使っていこっと！")
  ShowMessage("ぱちぱち、ぱちぱち……")
  ShowMessageFace("inp_fc1",2,0,2,2)
  ShowMessage("【ラミ】")
  ShowMessage("ぱちぱち、ぱちぱち……")
  0()



EVENT   5
 PAGE   1
  // condition: switch 1057 is ON
  ShowMessageFace("inp_fc3",2,0,2,1)
  ShowMessage("【ルミ】")
  ShowMessage("アルマエルマ先輩……")
  0()



EVENT   6
 PAGE   1
  // condition: switch 1058 is ON
  ShowMessageFace("inp_fc2",0,0,2,1)
  ShowMessage("【レミ】")
  ShowMessage("おどおど……")
  If(2,"A",1)
   ChangeSelfSwitch("A",0)
   ShowMessageFace("inp_fc2",0,0,2,2)
   ShowMessage("【レミ】")
   ShowMessage("…………ひろったよ。")
   250(bytes(0x04,0x08,0x6f,0x3a,0x0c,0x52,0x50,0x47,0x3a,0x3a,0x53,0x45,0x08,0x3a,0x0a,0x40,0x6e,0x61,0x6d,0x65,0x49,0x22,0x0a,0x49,0x74,0x65,0x6d,0x31,0x06,0x3a,0x06,0x45,0x54,0x3a,0x0b,0x40,0x70,0x69,0x74,0x63,0x68,0x69,0x69,0x3a,0x0c,0x40,0x76,0x6f,0x6c,0x75,0x6d,0x65,0x69,0x55))
   ChangeInventory_Item(333,0,0,1)
   ShowMessageFace("inp_fc2",0,0,2,3)
   ShowMessage("【レミ】")
   ShowMessage("キツネのおとしもの？")
   0()
  EndIf()
  0()



EVENT   7
 PAGE   1
  ShowMessageFace("ruka_fc1",0,0,2,1)
  ShowMessage("【ルカ】")
  ShowMessage("まだ、寝るには少し早いな……")
  205(-1,bytes(0x04,0x08,0x6f,0x3a,0x13,0x52,0x50,0x47,0x3a,0x3a,0x4d,0x6f,0x76,0x65,0x52,0x6f,0x75,0x74,0x65,0x09,0x3a,0x0c,0x40,0x72,0x65,0x70,0x65,0x61,0x74,0x46,0x3a,0x0f,0x40,0x73,0x6b,0x69,0x70,0x70,0x61,0x62,0x6c,0x65,0x46,0x3a,0x0a,0x40,0x77,0x61,0x69,0x74,0x54,0x3a,0x0a,0x40,0x6c,0x69,0x73,0x74,0x5b,0x07,0x6f,0x3a,0x15,0x52,0x50,0x47,0x3a,0x3a,0x4d,0x6f,0x76,0x65,0x43,0x6f,0x6d,0x6d,0x61,0x6e,0x64,0x07,0x3a,0x0a,0x40,0x63,0x6f,0x64,0x65,0x69,0x06,0x3a,0x10,0x40,0x70,0x61,0x72,0x61,0x6d,0x65,0x74,0x65,0x72,0x73,0x5b,0x00,0x6f,0x3b,0x0a,0x07,0x3b,0x0b,0x69,0x00,0x3b,0x0c,0x5b,0x00))
  0()
 PAGE   2
  // condition: switch 2191 is ON
  // condition: switch 4 is ON
  ShowMessageFace("ruka_fc1",0,0,2,1)
  ShowMessage("【ルカ】")
  ShowMessage("まだ、寝るには少し早いな……")
  205(-1,bytes(0x04,0x08,0x6f,0x3a,0x13,0x52,0x50,0x47,0x3a,0x3a,0x4d,0x6f,0x76,0x65,0x52,0x6f,0x75,0x74,0x65,0x09,0x3a,0x0c,0x40,0x72,0x65,0x70,0x65,0x61,0x74,0x46,0x3a,0x0f,0x40,0x73,0x6b,0x69,0x70,0x70,0x61,0x62,0x6c,0x65,0x46,0x3a,0x0a,0x40,0x77,0x61,0x69,0x74,0x54,0x3a,0x0a,0x40,0x6c,0x69,0x73,0x74,0x5b,0x07,0x6f,0x3a,0x15,0x52,0x50,0x47,0x3a,0x3a,0x4d,0x6f,0x76,0x65,0x43,0x6f,0x6d,0x6d,0x61,0x6e,0x64,0x07,0x3a,0x0a,0x40,0x63,0x6f,0x64,0x65,0x69,0x06,0x3a,0x10,0x40,0x70,0x61,0x72,0x61,0x6d,0x65,0x74,0x65,0x72,0x73,0x5b,0x00,0x6f,0x3b,0x0a,0x07,0x3b,0x0b,0x69,0x00,0x3b,0x0c,0x5b,0x00))
  205(2,bytes(0x04,0x08,0x6f,0x3a,0x13,0x52,0x50,0x47,0x3a,0x3a,0x4d,0x6f,0x76,0x65,0x52,0x6f,0x75,0x74,0x65,0x09,0x3a,0x0c,0x40,0x72,0x65,0x70,0x65,0x61,0x74,0x46,0x3a,0x0f,0x40,0x73,0x6b,0x69,0x70,0x70,0x61,0x62,0x6c,0x65,0x46,0x3a,0x0a,0x40,0x77,0x61,0x69,0x74,0x54,0x3a,0x0a,0x40,0x6c,0x69,0x73,0x74,0x5b,0x07,0x6f,0x3a,0x15,0x52,0x50,0x47,0x3a,0x3a,0x4d,0x6f,0x76,0x65,0x43,0x6f,0x6d,0x6d,0x61,0x6e,0x64,0x07,0x3a,0x0a,0x40,0x63,0x6f,0x64,0x65,0x69,0x18,0x3a,0x10,0x40,0x70,0x61,0x72,0x61,0x6d,0x65,0x74,0x65,0x72,0x73,0x5b,0x00,0x6f,0x3b,0x0a,0x07,0x3b,0x0b,0x69,0x00,0x3b,0x0c,0x5b,0x00))
  ShowMessageFace("alice_fc5",2,0,2,2)
  ShowMessage("【アリス】")
  ShowMessage("激戦を控えている以上、休息を優先すべきだが……")
  ShowMessage("せっかくの機会だ、土属性の戦技を伝授してやろう。")
  ShowMessageFace("ruka_fc1",0,0,2,3)
  ShowMessage("【ルカ】")
  ShowMessage("土の力か……よし！　お願いします！")
  ShowMessageFace("",0,0,2,4)
  ShowMessage("こうして、特訓が始まった――")
  221()
  Wait(120)
  222()
  ShowMessageFace("ruka_fc1",0,0,2,5)
  ShowMessage("【ルカ】")
  ShowMessage("おぉぉっ……でやぁっ！")
  250(bytes(0x04,0x08,0x6f,0x3a,0x0c,0x52,0x50,0x47,0x3a,0x3a,0x53,0x45,0x08,0x3a,0x0a,0x40,0x6e,0x61,0x6d,0x65,0x49,0x22,0x11,0x6d,0x6f,0x6e,0x5f,0x6b,0x61,0x72,0x61,0x62,0x75,0x72,0x69,0x06,0x3a,0x06,0x45,0x54,0x3a,0x0b,0x40,0x70,0x69,0x74,0x63,0x68,0x69,0x69,0x3a,0x0c,0x40,0x76,0x6f,0x6c,0x75,0x6d,0x65,0x69,0x55))
  Wait(60)
  ShowMessageFace("alice_fc5",1,0,2,6)
  ShowMessage("【アリス】")
  ShowMessage("うむ、飲み込みが早いと楽でいい。")
  ShowMessage("土の力を込め、渾身の一撃を敵に振り下ろすのだ。")
  318(0,1,0,1112)
  250(bytes(0x04,0x08,0x6f,0x3a,0x0c,0x52,0x50,0x47,0x3a,0x3a,0x53,0x45,0x08,0x3a,0x0a,0x40,0x6e,0x61,0x6d,0x65,0x49,0x22,0x0a,0x49,0x74,0x65,0x6d,0x31,0x06,0x3a,0x06,0x45,0x54,0x3a,0x0b,0x40,0x70,0x69,0x74,0x63,0x68,0x69,0x69,0x3a,0x0c,0x40,0x76,0x6f,0x6c,0x75,0x6d,0x65,0x69,0x55))
  ShowMessageFace("",0,0,2,7)
  ShowMessage("ルカは\\I[972]\\C[1]壊斧・大山鳴動\\C[0]を修得した！")
  ShowMessageFace("alice_fc5",1,0,2,8)
  ShowMessage("【アリス】")
  ShowMessage("これは本来、斧技なのだがな……")
  ShowMessage("まあ、剣で放っても威力を発揮するだろう。")
  ShowMessageFace("alice_fc5",1,0,2,9)
  ShowMessage("【アリス】")
  ShowMessage("やはり貴様は、非常に筋が良い。")
  ShowMessage("冒険が終わった後も、余に仕える事を許そう。")
  ShowMessageFace("ruka_fc1",0,0,2,10)
  ShowMessage("【ルカ】")
  ShowMessage("魔王の配下か……なんだか複雑だなぁ。")
  ShowMessage("そう言えばアルマエルマは、どうなったんだろう？")
  ShowMessageFace("alice_fc5",0,0,2,11)
  ShowMessage("【アリス】")
  ShowMessage("奴が、そう簡単に命を落とすものか。")
  ShowMessage("適当に時間を稼ぎ、適当なところで撤退したに決まっている。")
  ShowMessageFace("alice_fc5",3,0,2,12)
  ShowMessage("【アリス】")
  ShowMessage("そうであるはずだ……")
  ShowMessage("無事でいろよ、アルマエルマ……")
  ShowMessageFace("ruka_fc1",0,0,2,13)
  ShowMessage("【ルカ】")
  ShowMessage("たまもは、今も狐神社にいるとして……")
  ShowMessage("グランベリアとエルベティエは、魔王側なんだよね。")
  ShowMessageFace("alice_fc5",0,0,2,14)
  ShowMessage("【アリス】")
  ShowMessage("二人とも、相応に迷いはあるように見えたがな。")
  ShowMessage("個人に対する忠誠と、王座に対する忠誠の合間で悩んでいるのだろう。")
  ShowMessageFace("alice_fc5",0,0,2,15)
  ShowMessage("【アリス】")
  ShowMessage("エルベティエは、揺らぎそうな感じではあったが――")
  ShowMessage("グランベリアの方は、そうもいきそうにない。")
  ShowMessageFace("alice_fc5",3,0,2,16)
  ShowMessage("【アリス】")
  ShowMessage("奴とは、再び刃を交えねばなるまい……")
  ShowMessage("やれやれ、心が重いな。")
  ShowMessageFace("ruka_fc1",0,0,2,17)
  ShowMessage("【ルカ】")
  ShowMessage("コロシアムでは、アルマエルマに助けてもらったけど……")
  ShowMessage("今度は僕達だけの力で打ち勝てないといけないんだね。")
  ShowMessageFace("alice_fc5",0,0,2,18)
  ShowMessage("【アリス】")
  ShowMessage("だが、今は眼前の脅威に集中すべきだな。")
  ShowMessage("明日に備えて、今日はもう寝るぞ。")
  ShowMessageFace("ruka_fc1",0,0,2,19)
  ShowMessage("【ルカ】")
  ShowMessage("ああ、そうだね。")
  ShowMessageFace("",0,0,2,20)
  ShowMessage("明日からは戦いも激化する。")
  ShowMessage("遅くならないうちに、体を休めておこう――")
  221()
  249(bytes(0x04,0x08,0x6f,0x3a,0x0c,0x52,0x50,0x47,0x3a,0x3a,0x4d,0x45,0x08,0x3a,0x0a,0x40,0x6e,0x61,0x6d,0x65,0x49,0x22,0x08,0x49,0x6e,0x6e,0x06,0x3a,0x06,0x45,0x54,0x3a,0x0b,0x40,0x70,0x69,0x74,0x63,0x68,0x69,0x69,0x3a,0x0c,0x40,0x76,0x6f,0x6c,0x75,0x6d,0x65,0x69,0x69))
  Wait(180)
  314(0,0)
  223(bytes(0x04,0x08,0x75,0x3a,0x09,0x54,0x6f,0x6e,0x65,0x25,0x00,0x00,0x00,0x00,0x00,0x00,0x00,0x00,0x00,0x00,0x00,0x00,0x00,0x00,0x00,0x00,0x00,0x00,0x00,0x00,0x00,0x00,0x00,0x00,0x00,0x00,0x00,0x00,0x00,0x00,0x00,0x00),1,true)
  216(0)
  TeleportPlayer(0,2,237,155,4,2)
  222()
  ChangeSwitch(100,100,1)
  0()
 PAGE   3
  // condition: switch 2191 is ON
  // condition: switch 5 is ON
  ShowMessageFace("ruka_fc1",0,0,2,1)
  ShowMessage("【ルカ】")
  ShowMessage("まだ、寝るには少し早いな……")
  205(-1,bytes(0x04,0x08,0x6f,0x3a,0x13,0x52,0x50,0x47,0x3a,0x3a,0x4d,0x6f,0x76,0x65,0x52,0x6f,0x75,0x74,0x65,0x09,0x3a,0x0c,0x40,0x72,0x65,0x70,0x65,0x61,0x74,0x46,0x3a,0x0f,0x40,0x73,0x6b,0x69,0x70,0x70,0x61,0x62,0x6c,0x65,0x46,0x3a,0x0a,0x40,0x77,0x61,0x69,0x74,0x54,0x3a,0x0a,0x40,0x6c,0x69,0x73,0x74,0x5b,0x07,0x6f,0x3a,0x15,0x52,0x50,0x47,0x3a,0x3a,0x4d,0x6f,0x76,0x65,0x43,0x6f,0x6d,0x6d,0x61,0x6e,0x64,0x07,0x3a,0x0a,0x40,0x63,0x6f,0x64,0x65,0x69,0x06,0x3a,0x10,0x40,0x70,0x61,0x72,0x61,0x6d,0x65,0x74,0x65,0x72,0x73,0x5b,0x00,0x6f,0x3b,0x0a,0x07,0x3b,0x0b,0x69,0x00,0x3b,0x0c,0x5b,0x00))
  205(2,bytes(0x04,0x08,0x6f,0x3a,0x13,0x52,0x50,0x47,0x3a,0x3a,0x4d,0x6f,0x76,0x65,0x52,0x6f,0x75,0x74,0x65,0x09,0x3a,0x0c,0x40,0x72,0x65,0x70,0x65,0x61,0x74,0x46,0x3a,0x0f,0x40,0x73,0x6b,0x69,0x70,0x70,0x61,0x62,0x6c,0x65,0x46,0x3a,0x0a,0x40,0x77,0x61,0x69,0x74,0x54,0x3a,0x0a,0x40,0x6c,0x69,0x73,0x74,0x5b,0x07,0x6f,0x3a,0x15,0x52,0x50,0x47,0x3a,0x3a,0x4d,0x6f,0x76,0x65,0x43,0x6f,0x6d,0x6d,0x61,0x6e,0x64,0x07,0x3a,0x0a,0x40,0x63,0x6f,0x64,0x65,0x69,0x18,0x3a,0x10,0x40,0x70,0x61,0x72,0x61,0x6d,0x65,0x74,0x65,0x72,0x73,0x5b,0x00,0x6f,0x3b,0x0a,0x07,0x3b,0x0b,0x69,0x00,0x3b,0x0c,0x5b,0x00))
  ShowMessageFace("iriasu_fc4",2,0,2,2)
  ShowMessage("【イリアス】")
  ShowMessage("明日からの激戦に備え、休むべきですが……")
  ShowMessage("戦いに備え、ひとつ技を授けておきましょうか。")
  ShowMessageFace("ruka_fc1",0,0,2,3)
  ShowMessage("【ルカ】")
  ShowMessage("よし、お願いします！")
  ShowMessageFace("iriasu_fc4",0,0,2,4)
  ShowMessage("【イリアス】")
  ShowMessage("今回は、聖なる奥義を仕込んであげましょう。")
  ShowMessage("私のために戦う勇者である以上、その使用技にも威厳が必要なのです。")
  ShowMessageFace("ruka_fc1",0,0,2,5)
  ShowMessage("【ルカ】")
  ShowMessage("はい！　がんばります！")
  ShowMessageFace("",0,0,2,6)
  ShowMessage("こうして、決戦を控えた特訓が始まった――")
  221()
  Wait(120)
  222()
  ShowMessageFace("ruka_fc1",0,0,2,7)
  ShowMessage("【ルカ】")
  ShowMessage("十字の形に集中させて……はぁっ！")
  ShowMessageFace("iriasu_fc4",0,0,2,8)
  ShowMessage("【イリアス】")
  ShowMessage("そう……私を敬い、悪を憎む気持ちを十字に込めなさい。")
  ShowMessage("それこそが聖なる奥義、グランドクロスなのです。")
  318(0,1,0,1638)
  250(bytes(0x04,0x08,0x6f,0x3a,0x0c,0x52,0x50,0x47,0x3a,0x3a,0x53,0x45,0x08,0x3a,0x0a,0x40,0x6e,0x61,0x6d,0x65,0x49,0x22,0x0a,0x49,0x74,0x65,0x6d,0x31,0x06,0x3a,0x06,0x45,0x54,0x3a,0x0b,0x40,0x70,0x69,0x74,0x63,0x68,0x69,0x69,0x3a,0x0c,0x40,0x76,0x6f,0x6c,0x75,0x6d,0x65,0x69,0x55))
  ShowMessageFace("",0,0,2,9)
  ShowMessage("ルカは\\I[171]\\C[1]グランドクロス\\C[0]を修得した！")
  ShowMessageFace("iriasu_fc4",2,0,2,10)
  ShowMessage("【イリアス】")
  ShowMessage("聖なる技も、あなたはたちまち覚えてしまいますね。")
  ShowMessage("気は進みませんが、相性の良い堕天使の技もじきに仕込まなければ……")
  ShowMessageFace("ruka_fc1",0,0,2,11)
  ShowMessage("【ルカ】")
  ShowMessage("なぜ僕が、堕天使の技と相性がいいんですか？")
  ShowMessageFace("iriasu_fc4",2,0,2,12)
  ShowMessage("【イリアス】")
  ShowMessage("言っていませんでしたね、あなたの母は堕天使なのです。")
  ShowMessage("女神たる私に背き、ミカエラと激闘を繰り広げた事もあります……")
  ShowMessageFace("ruka_fc1",0,0,2,13)
  ShowMessage("【ルカ】")
  ShowMessage("なぜ、母さんが堕天使に……！？")
  ShowMessageFace("iriasu_fc4",2,0,2,14)
  ShowMessage("【イリアス】")
  ShowMessage("こっちが聞きたいですよ……")
  ShowMessage("私としては、ずいぶん可愛がったつもりなんですが……")
  ShowMessageFace("iriasu_fc4",2,0,2,15)
  ShowMessage("【イリアス】")
  ShowMessage("その恩も忘れ、天界を抜け出し……")
  ShowMessage("迎えの天使達を斬り伏せるわ、懐いていたエデンまで吹っ飛ばすわ……")
  ShowMessageFace("iriasu_fc4",2,0,2,16)
  ShowMessage("【イリアス】")
  ShowMessage("あの一件で、エデンはコンプレックスをこじらせてしまって……")
  ShowMessage("もうすっかり家庭崩壊ですよ……")
  ShowMessageFace("iriasu_fc4",7,0,2,17)
  ShowMessage("【イリアス】")
  ShowMessage("エデンはね、ルシフィナの足下にすがって泣いたんですよ！")
  ShowMessage("天界に戻ってほしいと、懇願したんですよ！")
  ShowMessageFace("iriasu_fc5",0,0,2,18)
  ShowMessage("【イリアス】")
  ShowMessage("ルシフィナは、その頭を踏んだんですよ！")
  ShowMessage("私は、それを見てつい笑ってしまったんですよ！")
  ShowMessageFace("iriasu_fc4",2,0,2,19)
  ShowMessage("【イリアス】")
  ShowMessage("エデンは深く傷つきました……")
  ShowMessage("愛する者全てに、裏切られたのです……")
  ShowMessageFace("ruka_fc1",0,0,2,20)
  ShowMessage("【ルカ】")
  ShowMessage("うん、ひどい話ですね……")
  ShowMessageFace("iriasu_fc4",2,0,2,21)
  ShowMessage("【イリアス】")
  ShowMessage("エデンは今、どうしているのでしょう……")
  ShowMessage("やはり、崩壊した天界と運命を共にしたのでしょうね。")
  ShowMessageFace("iriasu_fc4",2,0,2,22)
  ShowMessage("【イリアス】")
  ShowMessage("ああ、今は亡きエデン……")
  ShowMessage("思えばエデンは、私にとって鶏肋（けいろく）のような存在でした……")
  ShowMessageFace("ruka_fc1",0,0,2,23)
  ShowMessage("【ルカ】")
  ShowMessage("けいろく……って、どういう意味？")
  ShowMessageFace("iriasu_fc4",2,0,2,24)
  ShowMessage("【イリアス】")
  ShowMessage("自分で調べて下さい。")
  ShowMessage("私はもう、ねむくなっているのです……")
  ShowMessageFace("iriasu_fc4",3,0,2,25)
  ShowMessage("【イリアス】")
  ShowMessage("おやすみなさい、エデン……")
  ShowMessage("むにゃむにゃ……")
  ShowMessageFace("ruka_fc1",0,0,2,26)
  ShowMessage("【ルカ】")
  ShowMessage("……僕も、もう寝ようか。")
  ShowMessageFace("",0,0,2,27)
  ShowMessage("明日からは戦いも激化する。")
  ShowMessage("遅くならないうちに、体を休めておこう――")
  221()
  249(bytes(0x04,0x08,0x6f,0x3a,0x0c,0x52,0x50,0x47,0x3a,0x3a,0x4d,0x45,0x08,0x3a,0x0a,0x40,0x6e,0x61,0x6d,0x65,0x49,0x22,0x08,0x49,0x6e,0x6e,0x06,0x3a,0x06,0x45,0x54,0x3a,0x0b,0x40,0x70,0x69,0x74,0x63,0x68,0x69,0x69,0x3a,0x0c,0x40,0x76,0x6f,0x6c,0x75,0x6d,0x65,0x69,0x69))
  Wait(180)
  314(0,0)
  223(bytes(0x04,0x08,0x75,0x3a,0x09,0x54,0x6f,0x6e,0x65,0x25,0x00,0x00,0x00,0x00,0x00,0x00,0x00,0x00,0x00,0x00,0x00,0x00,0x00,0x00,0x00,0x00,0x00,0x00,0x00,0x00,0x00,0x00,0x00,0x00,0x00,0x00,0x00,0x00,0x00,0x00,0x00,0x00),1,true)
  216(0)
  TeleportPlayer(0,2,237,155,4,2)
  222()
  ChangeSwitch(100,100,1)
  0()



EVENT   8
 PAGE   1
  // condition: switch 1062 is ON
  ShowMessageFace("gob_fc1",3,0,2,1)
  ShowMessage("【ゴブ】")
  ShowMessage("人間同士の戦争に、ボクみたいな魔物が関わるってどうなのかな……")
  ShowMessage("でも、グランゴルドも妖魔が裏から動かしてるんだよね。")
  ShowMessageFace("gob_fc1",3,0,2,2)
  ShowMessage("【ゴブ】")
  ShowMessage("おばあちゃんは言ってたよ、人間の政治には関わっちゃいけないって。")
  ShowMessage("それが、人間と仲良くするヒケツなんだってさ。")
  0()



EVENT   9
 PAGE   1
  // condition: switch 1079 is ON
  // condition: party contains actor #79
  ShowMessageFace("nuruko_fc1",0,0,2,1)
  ShowMessage("【ヌルコ】")
  ShowMessage("きゅー！　きゅー！")
  ShowChoices(strings("何もしない","押す"),1)
  IfPlayerPicksChoice(0,null)
   EndEventProcessing()
   0()
  IfPlayerPicksChoice(1,null)
   205(0,bytes(0x04,0x08,0x6f,0x3a,0x13,0x52,0x50,0x47,0x3a,0x3a,0x4d,0x6f,0x76,0x65,0x52,0x6f,0x75,0x74,0x65,0x09,0x3a,0x0c,0x40,0x72,0x65,0x70,0x65,0x61,0x74,0x46,0x3a,0x0f,0x40,0x73,0x6b,0x69,0x70,0x70,0x61,0x62,0x6c,0x65,0x54,0x3a,0x0a,0x40,0x77,0x61,0x69,0x74,0x46,0x3a,0x0a,0x40,0x6c,0x69,0x73,0x74,0x5b,0x0e,0x6f,0x3a,0x15,0x52,0x50,0x47,0x3a,0x3a,0x4d,0x6f,0x76,0x65,0x43,0x6f,0x6d,0x6d,0x61,0x6e,0x64,0x07,0x3a,0x0a,0x40,0x63,0x6f,0x64,0x65,0x69,0x28,0x3a,0x10,0x40,0x70,0x61,0x72,0x61,0x6d,0x65,0x74,0x65,0x72,0x73,0x5b,0x00,0x6f,0x3b,0x0a,0x07,0x3b,0x0b,0x69,0x22,0x3b,0x0c,0x5b,0x06,0x69,0x0b,0x6f,0x3b,0x0a,0x07,0x3b,0x0b,0x69,0x23,0x3b,0x0c,0x5b,0x06,0x69,0x0a,0x6f,0x3b,0x0a,0x07,0x3b,0x0b,0x69,0x10,0x3b,0x0c,0x5b,0x00,0x6f,0x3b,0x0a,0x07,0x3b,0x0b,0x69,0x10,0x3b,0x0c,0x5b,0x00,0x6f,0x3b,0x0a,0x07,0x3b,0x0b,0x69,0x29,0x3b,0x0c,0x5b,0x00,0x6f,0x3b,0x0a,0x07,0x3b,0x0b,0x69,0x22,0x3b,0x0c,0x5b,0x06,0x69,0x09,0x6f,0x3b,0x0a,0x07,0x3b,0x0b,0x69,0x23,0x3b,0x0c,0x5b,0x06,0x69,0x08,0x6f,0x3b,0x0a,0x07,0x3b,0x0b,0x69,0x00,0x3b,0x0c,0x5b,0x00))
   0()
  404()
  0()



EVENT   10
 PAGE   1
  // condition: switch 1041 is ON
  ShowMessageFace("stein_fc2",0,0,2,1)
  ShowMessage("【プロメスティン】")
  ShowMessage("ラ・クロワから託されたノート……")
  ShowMessage("やはり、分からない点が多すぎますね。")
  ShowMessageFace("stein_fc2",0,0,2,2)
  ShowMessage("【プロメスティン】")
  ShowMessage("混沌が広がっていくプロセス等を、数式化しているようなのですが……")
  ShowMessage("虚数時間やらマイナスの質量やらがゴロゴロしてて……")
  If(0,4,0)
   ShowMessageFace("alice_fc5",3,0,2,3)
   ShowMessage("【アリス】")
   ShowMessage("熱力学の初歩程度しか知らん余には、まるで分からん話だな……")
   ShowMessageFace("stein_fc2",2,0,2,4)
   ShowMessage("【プロメスティン】")
   ShowMessage("あ……それでも、熱力学の初歩はご存じなんですね。")
   ShowMessageFace("alice_fc5",2,0,2,5)
   ShowMessage("【アリス】")
   ShowMessage("余はこれでも魔王だぞ？")
   ShowMessage("たまもから様々な授業を受けておるわ。")
   0()
  EndIf()
  If(0,5,0)
   ShowMessageFace("iriasu_fc4",2,0,2,6)
   ShowMessage("【イリアス】")
   ShowMessage("相対論と量子力学に加え、魔粒子学を統一した理論が必要です。")
   ShowMessage("今のあなたや、おつむの小さくなった私には手が出ないでしょう……")
   0()
  EndIf()
  0()



EVENT   11
 PAGE   1
  // condition: switch 1064 is ON
  ShowMessageFace("pramia_fc1",0,0,2,1)
  ShowMessage("【プチ】")
  ShowMessage("この木、洗濯物を干すのにちょうどいいわね。")
  205(0,bytes(0x04,0x08,0x6f,0x3a,0x13,0x52,0x50,0x47,0x3a,0x3a,0x4d,0x6f,0x76,0x65,0x52,0x6f,0x75,0x74,0x65,0x09,0x3a,0x0c,0x40,0x72,0x65,0x70,0x65,0x61,0x74,0x46,0x3a,0x0f,0x40,0x73,0x6b,0x69,0x70,0x70,0x61,0x62,0x6c,0x65,0x46,0x3a,0x0a,0x40,0x77,0x61,0x69,0x74,0x54,0x3a,0x0a,0x40,0x6c,0x69,0x73,0x74,0x5b,0x08,0x6f,0x3a,0x15,0x52,0x50,0x47,0x3a,0x3a,0x4d,0x6f,0x76,0x65,0x43,0x6f,0x6d,0x6d,0x61,0x6e,0x64,0x07,0x3a,0x0a,0x40,0x63,0x6f,0x64,0x65,0x69,0x13,0x3a,0x10,0x40,0x70,0x61,0x72,0x61,0x6d,0x65,0x74,0x65,0x72,0x73,0x5b,0x07,0x69,0x00,0x69,0x00,0x6f,0x3b,0x0a,0x07,0x3b,0x0b,0x69,0x13,0x3b,0x0c,0x5b,0x07,0x69,0x00,0x69,0x00,0x6f,0x3b,0x0a,0x07,0x3b,0x0b,0x69,0x00,0x3b,0x0c,0x5b,0x00))
  ShowMessageFace("pramia_fc1",2,0,2,2)
  ShowMessage("【プチ】")
  ShowMessage("と……とどかない……")
  ShowMessage("ねぇ、誰か手伝ってよ！")
  0()



EVENT   12
 PAGE   1
  // condition: switch 1072 is ON
  If(0,1068,0)
   ShowMessageFace("phoenix_fc1",2,0,2,1)
   ShowMessage("【ミニ】")
   ShowMessage("わぁっ！　ひんやりするぞ！")
   ShowMessage("いったいなんなのだー！？")
   0()
  Else()
   ShowMessageFace("phoenix_fc1",3,0,2,2)
   ShowMessage("【ミニ】")
   ShowMessage("このツボ……南ラサン朝時代の逸品と見たぞ。")
   ShowMessage("フィット感が良いから、持って帰りたいな。")
   0()
  EndIf()
  0()



EVENT   13
 PAGE   1
  // condition: switch 1066 is ON
  ShowMessageFace("vgirl_fc1",2,0,2,1)
  ShowMessage("【ヴァニラ】")
  ShowMessage("この淫気、首筋がぞわぞわする……高貴な我は敏感肌なのだ。")
  ShowMessage("鈍感なゴブやパピがうらやましいぞ。")
  0()



EVENT   14
 PAGE   1
  // condition: switch 1068 is ON
  ShowMessageFace("dragonp_fc1",0,0,2,1)
  ShowMessage("【パピ】")
  ShowMessage("ドラゴンは、氷のブレスも吐けるのだぞ！")
  ShowMessage("すー……、ひやひやひや……！")
  0()



EVENT   15
 PAGE   1
  // condition: switch 1054 is ON
  ShowMessageFace("bunnyslime_fc1",0,0,2,1)
  ShowMessage("【うさ】")
  ShowMessage("うさうさうさうさ～！")
  ShowMessageFace("bunnyslime_fc1",3,0,2,2)
  ShowMessage("【うさ】")
  ShowMessage("体に砂が混じっちゃった……")
  0()



EVENT   16
 PAGE   1
  // condition: switch 1118 is ON
  ShowMessageFace("meia_fc1",3,0,2,1)
  ShowMessage("【メイア】")
  ShowMessage("グランゴルドの子供達は大丈夫なのでしょうか……")
  ShowMessage("あんな淫気に、常にさらされているなんて……")
  ShowMessageFace("meia_fc1",1,0,2,2)
  ShowMessage("【メイア】")
  ShowMessage("人魚の特別な治療で、一人一人淫気を除かねばなりませんね。")
  ShowMessage("その時は、私にお任せ下さい。")
  0()



EVENT   17
 PAGE   1
  // condition: switch 1103 is ON
  If(0,1102,0)
   ShowMessageFace("kamuro_fc1",0,0,2,1)
   ShowMessage("【かむろ】")
   ShowMessage("きつね先輩……")
   ShowMessage("なんで、虫は明るいところに集まるのでしょうか？")
   ShowMessageFace("youko_fc1",0,0,2,2)
   ShowMessage("【きつね】")
   ShowMessage("暗きところで生まれたものでも、光を求めるもの。")
   ShowMessage("あたし達魔物も、結局はそうかもしれないね。")
   ShowMessageFace("kamuro_fc1",2,0,2,3)
   ShowMessage("【かむろ】")
   ShowMessage("きつね先輩が、なんだか深い事を！")
   ShowMessage("尻尾が増える前兆でしょうか！？")
   0()
  Else()
   ShowMessageFace("kamuro_fc1",0,0,2,4)
   ShowMessage("【かむろ】")
   ShowMessage("なんで、虫は明るいところに集まるのでしょうか？")
   ShowMessage("きつね先輩に聞いてみないと……")
   0()
  EndIf()
  0()



EVENT   18
 PAGE   1
  // condition: switch 1102 is ON
  If(0,1103,0)
   ShowMessageFace("kamuro_fc1",0,0,2,1)
   ShowMessage("【かむろ】")
   ShowMessage("きつね先輩……")
   ShowMessage("なんで、虫は明るいところに集まるのでしょうか？")
   ShowMessageFace("youko_fc1",0,0,2,2)
   ShowMessage("【きつね】")
   ShowMessage("暗きところで生まれたものでも、光を求めるもの。")
   ShowMessage("あたし達魔物も、結局はそうかもしれないね。")
   ShowMessageFace("kamuro_fc1",2,0,2,3)
   ShowMessage("【かむろ】")
   ShowMessage("きつね先輩が、なんだか深い事を！")
   ShowMessage("尻尾が増える前兆でしょうか！？")
   0()
  Else()
   ShowMessageFace("youko_fc1",2,0,2,4)
   ShowMessage("【きつね】")
   ShowMessage("わっ、灯りに虫が集まってる……")
   ShowMessage("ちょっと気持ち悪いよ～！")
   0()
  EndIf()
  0()



EVENT   19
 PAGE   1
  ShowMessageFace("sylph_fc1",4,0,2,1)
  ShowMessage("【シルフ】")
  ShowMessage("なんだか、イヤな風……")
  ShowMessage("甘ったるくて、ぞわぞわするの。")
  0()



EVENT   20
 PAGE   1
  // condition: switch 1531 is ON
  ShowMessageFace("saniria_fc2",0,0,2,1)
  ShowMessage("【サン・イリア王】")
  ShowMessage("四大国のうち、妖魔の手が伸びていないのはサン・イリアだけか。")
  ShowMessage("いや、もしや私の暗殺未遂事件が……")
  ShowMessageFace("saniria_fc2",0,0,2,2)
  ShowMessage("【サン・イリア王】")
  ShowMessage("……………………")
  0()



EVENT   21
 PAGE   1
  // condition: switch 1129 is ON
  ShowMessageFace("brunhild_fc1",0,0,2,1)
  ShowMessage("【ヒルデ】")
  ShowMessage("ヒルデ、子供が産める機能があるんだよ。")
  ShowMessage("ルカは、ヒルデと子作りしたい？")
  ShowChoices(strings("したい","したくない"),2)
  IfPlayerPicksChoice(0,null)
   If(0,6,0)
    ShowMessageFace("sonia_fc1",6,0,2,2)
    ShowMessage("【ソニア】")
    ShowMessage("……………………")
    ShowMessageFace("",0,0,2,3)
    ShowMessage("殺気を感じる……")
    0()
   EndIf()
   0()
  IfPlayerPicksChoice(1,null)
   ShowMessageFace("brunhild_fc1",0,0,2,4)
   ShowMessage("【ヒルデ】")
   ShowMessage("ヒルデ、ざんねん……")
   0()
  404()
  If(0,4,0)
   ShowMessageFace("alice_fc5",0,0,2,5)
   ShowMessage("【アリス】")
   ShowMessage("……しかし、なぜこのロボには出産機能があるのだ？")
   ShowMessage("制作者は本物の変態か？")
   0()
  EndIf()
  If(0,5,0)
   ShowMessageFace("iriasu_fc4",2,0,2,6)
   ShowMessage("【イリアス】")
   ShowMessage("……しかし、なぜこのロボには出産機能があるのでしょう？")
   ShowMessage("制作者は筋金入りの変態なのでしょうか？")
   0()
  EndIf()
  0()



EVENT   22
 PAGE   1
  // condition: switch 1143 is ON
  ShowMessageFace("eva_fc1",0,0,2,1)
  ShowMessage("【エヴァ】")
  ShowMessage("ゴルド地方には、サキュバスの村ってのがあってね……")
  ShowMessage("多くの淫魔が、そこで定住してるのよ。")
  ShowMessageFace("eva_fc1",0,0,2,2)
  ShowMessage("【エヴァ】")
  ShowMessage("行くのなら、事前に言ってよね。")
  ShowMessage("私、出入禁止になってるから……")
  0()



EVENT   23
 PAGE   1
  ShowMessageFace("gnome_fc1",0,0,2,1)
  ShowMessage("【ノーム】")
  ShowMessage("……………………")
  0()



EVENT   24
 PAGE   1
  ShowMessageFace("sara_fc1",4,0,2,1)
  ShowMessage("【サラ】")
  ShowMessage("グランゴルド王も、私と同じように精神を乱されているのかしら。")
  ShowMessage("操られているのだとしたら、私以上に辛い状況ね……")
  0()



EVENT   25
 PAGE   1
  // condition: switch 1233 is ON
  ShowMessageFace("mefist_fc1",0,0,2,1)
  ShowMessage("【メフィスト】")
  ShowMessage("グランゴルド城も間近ですね。")
  ShowMessage("今頃は、助っ人も到着しているでしょうか……")
  ShowChoices(strings("メフィストについて聞く","グランゴルド王について聞く"),3)
  IfPlayerPicksChoice(0,null)
   ShowMessageFace("ruka_fc1",0,0,2,2)
   ShowMessage("【ルカ】")
   ShowMessage("メフィスト……本当に信じていいんだね？")
   ShowMessageFace("mefist_fc1",0,0,2,3)
   ShowMessage("【メフィスト】")
   ShowMessage("私の事が、信用できませんか……？")
   ShowMessage("ご安心下さい、私にとって魔王様の命令は絶対です。")
   ShowMessageFace("ruka_fc1",0,0,2,4)
   ShowMessage("【ルカ】")
   ShowMessage("魔王の命令で、グランドノアを助けてるんだよね？")
   ShowMessageFace("mefist_fc1",0,0,2,5)
   ShowMessage("【メフィスト】")
   ShowMessage("ええ、その通りです。")
   ShowMessageFace("ruka_fc1",0,0,2,6)
   ShowMessage("【ルカ】")
   ShowMessage("そして、グランゴルドを操ってるのも魔王なんだよね？")
   ShowMessageFace("mefist_fc1",0,0,2,7)
   ShowMessage("【メフィスト】")
   ShowMessage("直接的にではありませんが……")
   ShowMessage("魔王様の計画通りという点では、間違っていません。")
   If(0,4,0)
    ShowMessageFace("alice_fc5",2,0,2,8)
    ShowMessage("【アリス】")
    ShowMessage("二国の共倒れを企んでいるのか……？")
    ShowMessage("それにしては、あまりにも手間が込みすぎている感があるな。")
    ShowMessageFace("alice_fc5",2,0,2,9)
    ShowMessage("【アリス】")
    ShowMessage("おそらく、正史絡みだな……")
    ShowMessage("正史において、グランドノアとグランゴルドは戦争をしていたのでは？")
    ShowMessageFace("mefist_fc1",0,0,2,10)
    ShowMessage("【メフィスト】")
    ShowMessage("当たらずとも、遠からず。")
    ShowMessage("正史において、この時期に両国が交戦したという事実はありません。")
    ShowMessageFace("mefist_fc1",0,0,2,11)
    ShowMessage("【メフィスト】")
    ShowMessage("しかし……起こりえた可能性で言えば、決して低くはないのです。")
    ShowMessage("ゆえに、正史と乖離が少ない形で事を起こす事ができるのでしょう。")
    ShowMessageFace("alice_fc5",2,0,2,12)
    ShowMessage("【アリス】")
    ShowMessage("正史からなるべくズレないようにしつつ、大戦争を起こしたと？")
    ShowMessage("なぜそのような事をするのか、教えてもらおうか！")
    0()
   EndIf()
   If(0,5,0)
    ShowMessageFace("iriasu_fc4",7,0,2,13)
    ShowMessage("【イリアス】")
    ShowMessage("二国の共倒れを企んでいるのですか……？")
    ShowMessage("しかし、それでは手間ばかりかかって効率も良くありません。")
    ShowMessageFace("iriasu_fc4",7,0,2,14)
    ShowMessage("【イリアス】")
    ShowMessage("おそらく、正史絡みですね。")
    ShowMessage("正史において、この時期の両国には戦争は起きませんでしたが……")
    ShowMessageFace("iriasu_fc4",7,0,2,15)
    ShowMessage("【イリアス】")
    ShowMessage("少しでも歯車のズレがあれば、戦争が勃発しかねない状況でした。")
    ShowMessage("つまり、正史との乖離はそう大きくないと言えるでしょう……")
    ShowMessageFace("mefist_fc1",0,0,2,16)
    ShowMessage("【メフィスト】")
    ShowMessage("いくら小さくあろうとも、イリアス様に隠し事は難しいものですね。")
    ShowMessageFace("iriasu_fc4",7,0,2,17)
    ShowMessage("【イリアス】")
    ShowMessage("正史からの決定的乖離を避けつつ、大戦争を起こしたのですね？")
    ShowMessage("なぜそのような必要があったのか、答えなさい！")
    0()
   EndIf()
   ShowMessageFace("mefist_fc1",0,0,2,18)
   ShowMessage("【メフィスト】")
   ShowMessage("その理由は、私にさえも知らされておりません。")
   ShowMessage("魔王様は、あくまで自身の心の内に秘めておられるのです。")
   ShowMessageFace("ruka_fc1",0,0,2,19)
   ShowMessage("【ルカ】")
   ShowMessage("確かに、四天王のアルマエルマさえ目的を知らなかったね……")
   ShowMessageFace("mefist_fc1",0,0,2,20)
   ShowMessage("【メフィスト】")
   ShowMessage("ですが私にも、魔王様の意図を推察する事くらいはできます。")
   ShowMessageFace("mefist_fc1",0,0,2,21)
   ShowMessage("【メフィスト】")
   ShowMessage("まず、前提条件として……")
   ShowMessage("この世界が正史から乖離すれば、混沌化が進むのはご存じですね。")
   ShowMessageFace("mefist_fc1",0,0,2,22)
   ShowMessage("【メフィスト】")
   ShowMessage("ゆえに、なるべく正史に近い形で歴史を先導しつつ……")
   ShowMessage("生けとし生ける者の絶滅を目論んでいるのではないかと。")
   If(0,4,0)
    ShowMessageFace("alice_fc6",0,0,2,23)
    ShowMessage("【アリス】")
    ShowMessage("なんだと……？　いったい、どういう事だ！？")
    0()
   EndIf()
   If(0,5,0)
    ShowMessageFace("iriasu_fc4",7,0,2,24)
    ShowMessage("【イリアス】")
    ShowMessage("それは……どういう事なのです！？")
    0()
   EndIf()
   ShowMessageFace("mefist_fc1",0,0,2,25)
   ShowMessage("【メフィスト】")
   ShowMessage("魔王様の行いは、大戦争の渦に人間も妖魔も投げ込むかのよう。")
   ShowMessage("すなわち、人も魔物も諸共に破滅させようというのです。")
   ShowMessageFace("mefist_fc1",0,0,2,26)
   ShowMessage("【メフィスト】")
   ShowMessage("もはやそれは政治でもなければ、支配が目的でもありません。")
   ShowMessage("その意図は、生命全ての絶滅をおいて他にないでしょう。")
   If(0,4,0)
    ShowMessageFace("alice_fc6",1,0,2,27)
    ShowMessage("【アリス】")
    ShowMessage("なぜだ！　なぜ母上は、そんな事を！")
    0()
   EndIf()
   If(0,5,0)
    ShowMessageFace("iriasu_fc4",7,0,2,28)
    ShowMessage("【イリアス】")
    ShowMessage("なぜです！　魔王は、自身が再創世しようとでもいうのですか！")
    0()
   EndIf()
   ShowMessageFace("mefist_fc1",0,0,2,29)
   ShowMessage("【メフィスト】")
   ShowMessage("私もしょせん、小賢しく地を這う妖魔の身。")
   ShowMessage("神にも届かんとする魔王様の志、測れるはずもありません。")
   ShowMessageFace("mefist_fc1",0,0,2,30)
   ShowMessage("【メフィスト】")
   ShowMessage("言ったでしょう、私の推測に過ぎないと……")
   ShowMessage("あくまで仮説であり、根拠も確証もありません。")
   If(0,4,0)
    ShowMessageFace("alice_fc5",2,0,2,31)
    ShowMessage("【アリス】")
    ShowMessage("貴様の下らん誇大妄想であってほしいものだな……")
    0()
   EndIf()
   If(0,5,0)
    ShowMessageFace("iriasu_fc4",7,0,2,32)
    ShowMessage("【イリアス】")
    ShowMessage("あなたの誇大妄想であってほしいものですね……")
    0()
   EndIf()
   If(0,6,0)
    ShowMessageFace("sonia_fc2",2,0,2,33)
    ShowMessage("【ソニア】")
    ShowMessage("メフィスト、あなたはそれでいいの？")
    ShowMessage("明らかにあなたも、大戦争の渦に投げ込まれてる人員よね？")
    ShowMessageFace("mefist_fc1",0,0,2,34)
    ShowMessage("【メフィスト】")
    ShowMessage("ええ……否定はできないでしょう。")
    ShowMessage("私とて、魔王様の駒のひとつに過ぎません。")
    ShowMessageFace("mefist_fc1",0,0,2,35)
    ShowMessage("【メフィスト】")
    ShowMessage("そして、その計画には合理的な理由があると信じます。")
    ShowMessage("全生命を滅ぼしてでも、行うべき何かなのだと……")
    If(0,4,0)
     ShowMessageFace("alice_fc5",0,0,2,36)
     ShowMessage("【アリス】")
     ShowMessage("ふん、ずいぶん狂信的だな……")
     ShowMessage("母上も、都合の良い手下を持ったものだ。")
     0()
    EndIf()
    If(0,5,0)
     ShowMessageFace("iriasu_fc4",2,0,2,37)
     ShowMessage("【イリアス】")
     ShowMessage("エデン並の狂信ですね……")
     0()
    EndIf()
    0()
   EndIf()
   ShowMessageFace("ruka_fc1",0,0,2,38)
   ShowMessage("【ルカ】")
   ShowMessage("何にしろ、魔王の陰謀は阻止しなきゃいけないんだ。")
   ShowMessage("なんとしても、グランゴルドを解放する！")
   ShowMessageFace("mefist_fc1",0,0,2,39)
   ShowMessage("【メフィスト】")
   ShowMessage("ええ……グランゴルド打倒まで、我々の利害は一致しています。")
   ShowMessage("その力、頼りにしていますよ。")
   If(0,6,0)
    ShowMessageFace("sonia_fc2",2,0,2,40)
    ShowMessage("【ソニア】")
    ShowMessage("本当に、それでいいの……？")
    0()
   EndIf()
   0()
  IfPlayerPicksChoice(1,null)
   ShowMessageFace("ruka_fc1",0,0,2,41)
   ShowMessage("【ルカ】")
   ShowMessage("グランゴルド王は、どうなってるんだろう……")
   ShowMessage("強大な魔術を使うとか、斬っても死なないって噂だけど……")
   ShowMessageFace("mefist_fc1",0,0,2,42)
   ShowMessage("【メフィスト】")
   ShowMessage("おそらく、魔導的な改造が施されたと思われます。")
   ShowMessage("魔力や肉体能力が、特殊な魔術によってブーストされたのでしょう。")
   If(0,4,0)
    ShowMessageFace("alice_fc5",2,0,2,43)
    ShowMessage("【アリス】")
    ShowMessage("しかし、元は人間ではないか……")
    ShowMessage("いくら魔術で強化したからといって、限界があるだろう？")
    ShowMessageFace("mefist_fc1",0,0,2,44)
    ShowMessage("【メフィスト】")
    ShowMessage("ええ……普通の人間ならば、たかが知れているでしょう。")
    ShowMessage("しかしグランゴルド王は、普通の人間などではありません。")
    ShowMessageFace("mefist_fc1",0,0,2,45)
    ShowMessage("【メフィスト】")
    ShowMessage("王家の血脈というのは、特別なのです。")
    ShowMessage("ヒト古種の遺伝子が、その血の中には眠っているのですよ。")
    0()
   EndIf()
   If(0,5,0)
    ShowMessageFace("iriasu_fc4",2,0,2,46)
    ShowMessage("【イリアス】")
    ShowMessage("元が人間では、魔術で強化したところで限界はすぐ――")
    ShowMessageFace("iriasu_fc4",7,0,2,47)
    ShowMessage("【イリアス】")
    ShowMessage("……まさか、王家の血脈を覚醒させたのですか……")
    ShowMessageFace("mefist_fc1",0,0,2,48)
    ShowMessage("【メフィスト】")
    ShowMessage("ええ……王家の血脈というのは、特別なのです。")
    ShowMessage("ヒト古種の遺伝子が、その血の中には眠っているのですよ。")
    0()
   EndIf()
   If(0,6,0)
    ShowMessageFace("sonia_fc2",2,0,2,49)
    ShowMessage("【ソニア】")
    ShowMessage("ヒト古種……？")
    0()
   Else()
    ShowMessageFace("ruka_fc1",0,0,2,50)
    ShowMessage("【ルカ】")
    ShowMessage("ヒト古種……？")
    0()
   EndIf()
   ShowMessageFace("mefist_fc1",0,0,2,51)
   ShowMessage("【メフィスト】")
   ShowMessage("神話の時代に存在した、最古種のヒトです。")
   ShowMessage("彼らは、今の人間以上の力を持ち得ていました。")
   ShowMessageFace("mefist_fc1",0,0,2,52)
   ShowMessage("【メフィスト】")
   ShowMessage("いわば、創世の女神による初期的な実験作ですね。")
   ShowMessage("妖魔にも劣らない力がありましたが、様々な難点がありました。")
   ShowMessageFace("mefist_fc1",0,0,2,53)
   ShowMessage("【メフィスト】")
   ShowMessage("このヒト古種の性能をランクダウンさせつつ、欠点を解消……")
   ShowMessage("そして量産に適したデザインに改められたのが、現生のヒトなのです。")
   If(0,4,0)
    ShowMessageFace("alice_fc5",0,0,2,54)
    ShowMessage("【アリス】")
    ShowMessage("ずいぶん、神話の時代に詳しいな……")
    0()
   EndIf()
   If(0,5,0)
    ShowMessageFace("iriasu_fc4",2,0,2,55)
    ShowMessage("【イリアス】")
    ShowMessage("ずいぶん、私の仕事に詳しいのですね……")
    0()
   EndIf()
   ShowMessageFace("mefist_fc1",0,0,2,56)
   ShowMessage("【メフィスト】")
   ShowMessage("魔王様より話をうかがいました。")
   ShowMessage("あの方がいかにして知り得たかは、私も存じません。")
   ShowMessageFace("mefist_fc1",0,0,2,57)
   ShowMessage("【メフィスト】")
   ShowMessage("……さて、話を戻しましょう。")
   ShowMessage("言ったようにヒト古種は、現生人類へと進化したのですが――")
   ShowMessageFace("mefist_fc1",0,0,2,58)
   ShowMessage("【メフィスト】")
   ShowMessage("現生人類の中で、最初期に生み出されたモデルは、")
   ShowMessage("その遺伝子の中にヒト古種のデータが残っていたのです。")
   ShowMessageFace("mefist_fc1",0,0,2,59)
   ShowMessage("【メフィスト】")
   ShowMessage("いわば現生人類の初期型限定タイプ――それは、地上において、")
   ShowMessage("人間達のリーダーとなるべく作られたごく少数のエリートでした。")
   ShowMessageFace("ruka_fc1",0,0,2,60)
   ShowMessage("【ルカ】")
   ShowMessage("それが、王家の血脈ってわけか……")
   ShowMessageFace("mefist_fc1",0,0,2,61)
   ShowMessage("【メフィスト】")
   ShowMessage("ええ……彼らはイリアスの期待通り、人間集団のトップに立ちました。")
   ShowMessage("そして代を経ても、その血に眠る遺伝子は脈々と受け継がれます。")
   ShowMessageFace("mefist_fc1",0,0,2,62)
   ShowMessage("【メフィスト】")
   ShowMessage("それが、王家の血脈……")
   ShowMessage("彼らは、ヒト古種の遺伝子をその身に備えているのですよ。")
   If(0,6,0)
    ShowMessageFace("sonia_fc2",2,0,2,63)
    ShowMessage("【ソニア】")
    ShowMessage("王家っていったら……")
    ShowMessage("グランドノア、グランゴルド、サバサの三王家よね。")
    0()
   Else()
    ShowMessageFace("ruka_fc1",0,0,2,64)
    ShowMessage("【ルカ】")
    ShowMessage("王家っていったら……")
    ShowMessage("グランドノア、グランゴルド、サバサの三王家だよね。")
    0()
   EndIf()
   ShowMessageFace("mefist_fc1",0,0,2,65)
   ShowMessage("【メフィスト】")
   ShowMessage("ええ……")
   ShowMessage("その中でも、グランゴルド王家は魔力の強さで卓越していました。")
   ShowMessageFace("mefist_fc1",0,0,2,66)
   ShowMessage("【メフィスト】")
   ShowMessage("ゴルド一世は、「魔導王」とも賞された人物。")
   ShowMessage("その魔力は、妖魔にさえ匹敵したと言われています。")
   ShowMessageFace("mefist_fc1",0,0,2,67)
   ShowMessage("【メフィスト】")
   ShowMessage("そして現在のグランゴルド王も……")
   ShowMessage("潜在的に、初代と比べて遜色ない魔力を備えていたのですよ。")
   If(0,4,0)
    ShowMessageFace("alice_fc6",0,0,2,68)
    ShowMessage("【アリス】")
    ShowMessage("そこに、魔導の施術を施したというのだな……？")
    ShowMessage("肉体や精神を改造し、王家の血脈まで覚醒させ……")
    0()
   EndIf()
   If(0,5,0)
    ShowMessageFace("iriasu_fc4",7,0,2,69)
    ShowMessage("【イリアス】")
    ShowMessage("そこに、魔導の施術を施したという事ですね……？")
    ShowMessage("肉体や精神を改造し、王家の血脈まで覚醒させ……")
    0()
   EndIf()
   ShowMessageFace("mefist_fc1",0,0,2,70)
   ShowMessage("【メフィスト】")
   ShowMessage("ええ、その通りです……")
   ShowMessage("しかしその代償は、とてつもなく大きいでしょうね。")
   If(0,4,0)
    ShowMessageFace("alice_fc5",2,0,2,71)
    ShowMessage("【アリス】")
    ShowMessage("さっき貴様は言っていたな……")
    ShowMessage("ヒト古種の力は優れているが、様々な欠陥があったと。")
    ShowMessageFace("mefist_fc1",0,0,2,72)
    ShowMessage("【メフィスト】")
    ShowMessage("エネルギー収支の劣悪さや、生殖能力の低さ……")
    ShowMessage("また精神異常や魔力暴走など、非常に不安定だったのです。")
    0()
   EndIf()
   If(0,5,0)
    ShowMessageFace("iriasu_fc4",7,0,2,73)
    ShowMessage("【イリアス】")
    ShowMessage("メフィスト、あなたも聞いているのですね。")
    ShowMessage("ヒト古種には様々な欠陥があり、生物として極めて不安定だったと……")
    ShowMessageFace("mefist_fc1",0,0,2,74)
    ShowMessage("【メフィスト】")
    ShowMessage("エネルギー収支の劣悪さや、生殖能力の低さ……")
    ShowMessage("また精神異常や魔力暴走など、非常に不安定だったという話ですね。")
    0()
   EndIf()
   ShowMessageFace("mefist_fc1",0,0,2,75)
   ShowMessage("【メフィスト】")
   ShowMessage("単体戦力は凄まじかったものの、生物としては欠陥品でした。")
   ShowMessage("創世の女神が、ヒト古種を失敗作と断じたのも当然です。")
   ShowMessageFace("ruka_fc1",0,0,2,76)
   ShowMessage("【ルカ】")
   ShowMessage("じゃあ、今のグランゴルド王は……")
   ShowMessageFace("mefist_fc1",0,0,2,77)
   ShowMessage("【メフィスト】")
   ShowMessage("理性も情緒も保てていない、悪魔的な生体兵器……")
   ShowMessage("王妃は、そんな怪物を作り上げてしまったのですよ。")
   If(0,6,0)
    ShowMessageFace("sonia_fc2",2,0,2,78)
    ShowMessage("【ソニア】")
    ShowMessage("そんなの、グランゴルド王も被害者じゃない……！")
    0()
   Else()
    ShowMessageFace("ruka_fc1",0,0,2,79)
    ShowMessage("【ルカ】")
    ShowMessage("それじゃあ、グランゴルド王も被害者じゃないか……！")
    0()
   EndIf()
   ShowMessageFace("mefist_fc1",0,0,2,80)
   ShowMessage("【メフィスト】")
   ShowMessage("ええ……しかし、覚悟を決めなければいけません。")
   ShowMessage("王妃を討つ以上、王も確実に敵に回るでしょう。")
   If(0,4,0)
    ShowMessageFace("alice_fc5",0,0,2,81)
    ShowMessage("【アリス】")
    ShowMessage("しかし、クィーンアントがそこまでの施術を行うなど……")
    ShowMessage("どうにも、引っ掛かるな……")
    0()
   EndIf()
   If(0,5,0)
    ShowMessageFace("iriasu_fc4",2,0,2,82)
    ShowMessage("【イリアス】")
    ShowMessage("しかし、クィーンアントがそこまでの施術を施すなど……")
    ShowMessage("どこか収まりの悪い話ですね……")
    0()
   EndIf()
   ShowMessageFace("ruka_fc1",0,0,2,83)
   ShowMessage("【ルカ】")
   ShowMessage("……………………")
   ShowMessageFace("",0,0,2,84)
   ShowMessage("ともかく、王家の血脈を覚醒させた魔導王と戦う可能性は十分にあるのだ。")
   ShowMessage("これからの決戦、生半可な覚悟では戦い抜く事はできない――")
   0()
  404()
  0()
 PAGE   2
  // condition: switch 1391 is ON
  ShowMessageFace("mefist_fc2",0,0,2,1)
  ShowMessage("【メフィスト】")
  ShowMessage("グランゴルド城も間近ですね。")
  ShowMessage("今頃は、助っ人も到着しているでしょうか……")
  ShowChoices(strings("メフィストについて聞く","グランゴルド王について聞く"),3)
  IfPlayerPicksChoice(0,null)
   ShowMessageFace("ruka_fc1",0,0,2,2)
   ShowMessage("【ルカ】")
   ShowMessage("メフィスト……本当に信じていいんだね？")
   ShowMessageFace("mefist_fc2",0,0,2,3)
   ShowMessage("【メフィスト】")
   ShowMessage("私の事が、信用できませんか……？")
   ShowMessage("ご安心下さい、私にとって魔王様の命令は絶対です。")
   ShowMessageFace("ruka_fc1",0,0,2,4)
   ShowMessage("【ルカ】")
   ShowMessage("魔王の命令で、グランドノアを助けてるんだよね？")
   ShowMessageFace("mefist_fc2",0,0,2,5)
   ShowMessage("【メフィスト】")
   ShowMessage("ええ、その通りです。")
   ShowMessageFace("ruka_fc1",0,0,2,6)
   ShowMessage("【ルカ】")
   ShowMessage("そして、グランゴルドを操ってるのも魔王なんだよね？")
   ShowMessageFace("mefist_fc1",0,0,2,7)
   ShowMessage("【メフィスト】")
   ShowMessage("直接的にではありませんが……")
   ShowMessage("魔王様の計画通りという点では、間違っていません。")
   If(0,4,0)
    ShowMessageFace("alice_fc5",2,0,2,8)
    ShowMessage("【アリス】")
    ShowMessage("二国の共倒れを企んでいるのか……？")
    ShowMessage("それにしては、あまりにも手間が込みすぎている感があるな。")
    ShowMessageFace("alice_fc5",2,0,2,9)
    ShowMessage("【アリス】")
    ShowMessage("おそらく、正史絡みだな……")
    ShowMessage("正史において、グランドノアとグランゴルドは戦争をしていたのでは？")
    ShowMessageFace("mefist_fc1",0,0,2,10)
    ShowMessage("【メフィスト】")
    ShowMessage("当たらずとも、遠からず。")
    ShowMessage("正史において、この時期に両国が交戦したという事実はありません。")
    ShowMessageFace("mefist_fc1",0,0,2,11)
    ShowMessage("【メフィスト】")
    ShowMessage("しかし……起こりえた可能性で言えば、決して低くはないのです。")
    ShowMessage("ゆえに、正史と乖離が少ない形で事を起こす事ができるのでしょう。")
    ShowMessageFace("alice_fc5",2,0,2,12)
    ShowMessage("【アリス】")
    ShowMessage("正史からなるべくズレないようにしつつ、大戦争を起こしたと？")
    ShowMessage("なぜそのような事をするのか、教えてもらおうか！")
    0()
   EndIf()
   If(0,5,0)
    ShowMessageFace("iriasu_fc4",7,0,2,13)
    ShowMessage("【イリアス】")
    ShowMessage("二国の共倒れを企んでいるのですか……？")
    ShowMessage("しかし、それでは手間ばかりかかって効率も良くありません。")
    ShowMessageFace("iriasu_fc4",7,0,2,14)
    ShowMessage("【イリアス】")
    ShowMessage("おそらく、正史絡みですね。")
    ShowMessage("正史において、この時期の両国には戦争は起きませんでしたが……")
    ShowMessageFace("iriasu_fc4",7,0,2,15)
    ShowMessage("【イリアス】")
    ShowMessage("少しでも歯車のズレがあれば、戦争が勃発しかねない状況でした。")
    ShowMessage("つまり、正史との乖離はそう大きくないと言えるでしょう……")
    ShowMessageFace("mefist_fc1",0,0,2,16)
    ShowMessage("【メフィスト】")
    ShowMessage("いくら小さくあろうとも、イリアス様に隠し事は難しいものですね。")
    ShowMessageFace("iriasu_fc4",7,0,2,17)
    ShowMessage("【イリアス】")
    ShowMessage("正史からの決定的乖離を避けつつ、大戦争を起こしたのですね？")
    ShowMessage("なぜそのような必要があったのか、答えなさい！")
    0()
   EndIf()
   ShowMessageFace("mefist_fc1",0,0,2,18)
   ShowMessage("【メフィスト】")
   ShowMessage("その理由は、私にさえも知らされておりません。")
   ShowMessage("魔王様は、あくまで自身の心の内に秘めておられるのです。")
   ShowMessageFace("ruka_fc1",0,0,2,19)
   ShowMessage("【ルカ】")
   ShowMessage("確かに、四天王のアルマエルマさえ目的を知らなかったね……")
   ShowMessageFace("mefist_fc1",0,0,2,20)
   ShowMessage("【メフィスト】")
   ShowMessage("ですが私にも、魔王様の意図を推察する事くらいはできます。")
   ShowMessageFace("mefist_fc1",0,0,2,21)
   ShowMessage("【メフィスト】")
   ShowMessage("まず、前提条件として……")
   ShowMessage("この世界が正史から乖離すれば、混沌化が進むのはご存じですね。")
   ShowMessageFace("mefist_fc1",0,0,2,22)
   ShowMessage("【メフィスト】")
   ShowMessage("ゆえに、なるべく正史に近い形で歴史を先導しつつ……")
   ShowMessage("生けとし生ける者の絶滅を目論んでいるのではないかと。")
   If(0,4,0)
    ShowMessageFace("alice_fc6",0,0,2,23)
    ShowMessage("【アリス】")
    ShowMessage("なんだと……？　いったい、どういう事だ！？")
    0()
   EndIf()
   If(0,5,0)
    ShowMessageFace("iriasu_fc4",7,0,2,24)
    ShowMessage("【イリアス】")
    ShowMessage("それは……どういう事なのです！？")
    0()
   EndIf()
   ShowMessageFace("mefist_fc1",0,0,2,25)
   ShowMessage("【メフィスト】")
   ShowMessage("魔王様の行いは、大戦争の渦に人間も妖魔も投げ込むかのよう。")
   ShowMessage("すなわち、人も魔物も諸共に破滅させようというのです。")
   ShowMessageFace("mefist_fc1",0,0,2,26)
   ShowMessage("【メフィスト】")
   ShowMessage("もはやそれは政治でもなければ、支配が目的でもありません。")
   ShowMessage("その意図は、生命全ての絶滅をおいて他にないでしょう。")
   If(0,4,0)
    ShowMessageFace("alice_fc6",1,0,2,27)
    ShowMessage("【アリス】")
    ShowMessage("なぜだ！　なぜ母上は、そんな事を！")
    0()
   EndIf()
   If(0,5,0)
    ShowMessageFace("iriasu_fc4",7,0,2,28)
    ShowMessage("【イリアス】")
    ShowMessage("なぜです！　魔王は、自身が再創世しようとでもいうのですか！")
    0()
   EndIf()
   ShowMessageFace("mefist_fc1",0,0,2,29)
   ShowMessage("【メフィスト】")
   ShowMessage("私もしょせん、小賢しく地を這う妖魔の身。")
   ShowMessage("神にも届かんとする魔王様の志、測れるはずもありません。")
   ShowMessageFace("mefist_fc1",0,0,2,30)
   ShowMessage("【メフィスト】")
   ShowMessage("言ったでしょう、私の推測に過ぎないと……")
   ShowMessage("あくまで仮説であり、根拠も確証もありません。")
   If(0,4,0)
    ShowMessageFace("alice_fc5",2,0,2,31)
    ShowMessage("【アリス】")
    ShowMessage("貴様の下らん誇大妄想であってほしいものだな……")
    0()
   EndIf()
   If(0,5,0)
    ShowMessageFace("iriasu_fc4",7,0,2,32)
    ShowMessage("【イリアス】")
    ShowMessage("あなたの誇大妄想であってほしいものですね……")
    0()
   EndIf()
   If(0,6,0)
    ShowMessageFace("sonia_fc2",2,0,2,33)
    ShowMessage("【ソニア】")
    ShowMessage("メフィスト、あなたはそれでいいの？")
    ShowMessage("明らかにあなたも、大戦争の渦に投げ込まれてる人員よね？")
    ShowMessageFace("mefist_fc1",0,0,2,34)
    ShowMessage("【メフィスト】")
    ShowMessage("ええ……否定はできないでしょう。")
    ShowMessage("私とて、魔王様の駒のひとつに過ぎません。")
    ShowMessageFace("mefist_fc1",0,0,2,35)
    ShowMessage("【メフィスト】")
    ShowMessage("そして、その計画には合理的な理由があると信じます。")
    ShowMessage("全生命を滅ぼしてでも、行うべき何かなのだと……")
    If(0,4,0)
     ShowMessageFace("alice_fc5",0,0,2,36)
     ShowMessage("【アリス】")
     ShowMessage("ふん、ずいぶん狂信的だな……")
     ShowMessage("母上も、都合の良い手下を持ったものだ。")
     0()
    EndIf()
    If(0,5,0)
     ShowMessageFace("iriasu_fc4",2,0,2,37)
     ShowMessage("【イリアス】")
     ShowMessage("エデン並の狂信ですね……")
     0()
    EndIf()
    0()
   EndIf()
   ShowMessageFace("ruka_fc1",0,0,2,38)
   ShowMessage("【ルカ】")
   ShowMessage("何にしろ、魔王の陰謀は阻止しなきゃいけないんだ。")
   ShowMessage("なんとしても、グランゴルドを解放する！")
   ShowMessageFace("mefist_fc1",0,0,2,39)
   ShowMessage("【メフィスト】")
   ShowMessage("ええ……グランゴルド打倒まで、我々の利害は一致しています。")
   ShowMessage("その力、頼りにしていますよ。")
   If(0,6,0)
    ShowMessageFace("sonia_fc2",2,0,2,40)
    ShowMessage("【ソニア】")
    ShowMessage("本当に、それでいいの……？")
    0()
   EndIf()
   0()
  IfPlayerPicksChoice(1,null)
   ShowMessageFace("ruka_fc1",0,0,2,41)
   ShowMessage("【ルカ】")
   ShowMessage("グランゴルド王は、どうなってるんだろう……")
   ShowMessage("強大な魔術を使うとか、斬っても死なないって噂だけど……")
   ShowMessageFace("mefist_fc1",0,0,2,42)
   ShowMessage("【メフィスト】")
   ShowMessage("おそらく、魔導的な改造が施されたと思われます。")
   ShowMessage("魔力や肉体能力が、特殊な魔術によってブーストされたのでしょう。")
   If(0,4,0)
    ShowMessageFace("alice_fc5",2,0,2,43)
    ShowMessage("【アリス】")
    ShowMessage("しかし、元は人間ではないか……")
    ShowMessage("いくら魔術で強化したからといって、限界があるだろう？")
    ShowMessageFace("mefist_fc1",0,0,2,44)
    ShowMessage("【メフィスト】")
    ShowMessage("ええ……普通の人間ならば、たかが知れているでしょう。")
    ShowMessage("しかしグランゴルド王は、普通の人間などではありません。")
    ShowMessageFace("mefist_fc1",0,0,2,45)
    ShowMessage("【メフィスト】")
    ShowMessage("王家の血脈というのは、特別なのです。")
    ShowMessage("ヒト古種の遺伝子が、その血の中には眠っているのですよ。")
    0()
   EndIf()
   If(0,5,0)
    ShowMessageFace("iriasu_fc4",2,0,2,46)
    ShowMessage("【イリアス】")
    ShowMessage("元が人間では、魔術で強化したところで限界はすぐ――")
    ShowMessageFace("iriasu_fc4",7,0,2,47)
    ShowMessage("【イリアス】")
    ShowMessage("……まさか、王家の血脈を覚醒させたのですか……")
    ShowMessageFace("mefist_fc1",0,0,2,48)
    ShowMessage("【メフィスト】")
    ShowMessage("ええ……王家の血脈というのは、特別なのです。")
    ShowMessage("ヒト古種の遺伝子が、その血の中には眠っているのですよ。")
    0()
   EndIf()
   If(0,6,0)
    ShowMessageFace("sonia_fc2",2,0,2,49)
    ShowMessage("【ソニア】")
    ShowMessage("ヒト古種……？")
    0()
   Else()
    ShowMessageFace("ruka_fc1",0,0,2,50)
    ShowMessage("【ルカ】")
    ShowMessage("ヒト古種……？")
    0()
   EndIf()
   ShowMessageFace("mefist_fc1",0,0,2,51)
   ShowMessage("【メフィスト】")
   ShowMessage("神話の時代に存在した、最古種のヒトです。")
   ShowMessage("彼らは、今の人間以上の力を持ち得ていました。")
   ShowMessageFace("mefist_fc1",0,0,2,52)
   ShowMessage("【メフィスト】")
   ShowMessage("いわば、創世の女神による初期的な実験作ですね。")
   ShowMessage("妖魔にも劣らない力がありましたが、様々な難点がありました。")
   ShowMessageFace("mefist_fc1",0,0,2,53)
   ShowMessage("【メフィスト】")
   ShowMessage("このヒト古種の性能をランクダウンさせつつ、欠点を解消……")
   ShowMessage("そして量産に適したデザインに改められたのが、現生のヒトなのです。")
   If(0,4,0)
    ShowMessageFace("alice_fc5",0,0,2,54)
    ShowMessage("【アリス】")
    ShowMessage("ずいぶん、神話の時代に詳しいな……")
    0()
   EndIf()
   If(0,5,0)
    ShowMessageFace("iriasu_fc4",2,0,2,55)
    ShowMessage("【イリアス】")
    ShowMessage("ずいぶん、私の仕事に詳しいのですね……")
    0()
   EndIf()
   ShowMessageFace("mefist_fc1",0,0,2,56)
   ShowMessage("【メフィスト】")
   ShowMessage("魔王様より話をうかがいました。")
   ShowMessage("あの方がいかにして知り得たかは、私も存じません。")
   ShowMessageFace("mefist_fc1",0,0,2,57)
   ShowMessage("【メフィスト】")
   ShowMessage("……さて、話を戻しましょう。")
   ShowMessage("言ったようにヒト古種は、現生人類へと進化したのですが――")
   ShowMessageFace("mefist_fc1",0,0,2,58)
   ShowMessage("【メフィスト】")
   ShowMessage("現生人類の中で、最初期に生み出されたモデルは、")
   ShowMessage("その遺伝子の中にヒト古種のデータが残っていたのです。")
   ShowMessageFace("mefist_fc1",0,0,2,59)
   ShowMessage("【メフィスト】")
   ShowMessage("いわば現生人類の初期型限定タイプ――それは、地上において、")
   ShowMessage("人間達のリーダーとなるべく作られたごく少数のエリートでした。")
   ShowMessageFace("ruka_fc1",0,0,2,60)
   ShowMessage("【ルカ】")
   ShowMessage("それが、王家の血脈ってわけか……")
   ShowMessageFace("mefist_fc1",0,0,2,61)
   ShowMessage("【メフィスト】")
   ShowMessage("ええ……彼らはイリアスの期待通り、人間集団のトップに立ちました。")
   ShowMessage("そして代を経ても、その血に眠る遺伝子は脈々と受け継がれます。")
   ShowMessageFace("mefist_fc1",0,0,2,62)
   ShowMessage("【メフィスト】")
   ShowMessage("それが、王家の血脈……")
   ShowMessage("彼らは、ヒト古種の遺伝子をその身に備えているのですよ。")
   If(0,6,0)
    ShowMessageFace("sonia_fc2",2,0,2,63)
    ShowMessage("【ソニア】")
    ShowMessage("王家っていったら……")
    ShowMessage("グランドノア、グランゴルド、サバサの三王家よね。")
    0()
   Else()
    ShowMessageFace("ruka_fc1",0,0,2,64)
    ShowMessage("【ルカ】")
    ShowMessage("王家っていったら……")
    ShowMessage("グランドノア、グランゴルド、サバサの三王家だよね。")
    0()
   EndIf()
   ShowMessageFace("mefist_fc1",0,0,2,65)
   ShowMessage("【メフィスト】")
   ShowMessage("ええ……")
   ShowMessage("その中でも、グランゴルド王家は魔力の強さで卓越していました。")
   ShowMessageFace("mefist_fc1",0,0,2,66)
   ShowMessage("【メフィスト】")
   ShowMessage("ゴルド一世は、「魔導王」とも賞された人物。")
   ShowMessage("その魔力は、妖魔にさえ匹敵したと言われています。")
   ShowMessageFace("mefist_fc1",0,0,2,67)
   ShowMessage("【メフィスト】")
   ShowMessage("そして現在のグランゴルド王も……")
   ShowMessage("潜在的に、初代と比べて遜色ない魔力を備えていたのですよ。")
   If(0,4,0)
    ShowMessageFace("alice_fc6",0,0,2,68)
    ShowMessage("【アリス】")
    ShowMessage("そこに、魔導の施術を施したというのだな……？")
    ShowMessage("肉体や精神を改造し、王家の血脈まで覚醒させ……")
    0()
   EndIf()
   If(0,5,0)
    ShowMessageFace("iriasu_fc4",7,0,2,69)
    ShowMessage("【イリアス】")
    ShowMessage("そこに、魔導の施術を施したという事ですね……？")
    ShowMessage("肉体や精神を改造し、王家の血脈まで覚醒させ……")
    0()
   EndIf()
   ShowMessageFace("mefist_fc1",0,0,2,70)
   ShowMessage("【メフィスト】")
   ShowMessage("ええ、その通りです……")
   ShowMessage("しかしその代償は、とてつもなく大きいでしょうね。")
   If(0,4,0)
    ShowMessageFace("alice_fc5",2,0,2,71)
    ShowMessage("【アリス】")
    ShowMessage("さっき貴様は言っていたな……")
    ShowMessage("ヒト古種の力は優れているが、様々な欠陥があったと。")
    ShowMessageFace("mefist_fc1",0,0,2,72)
    ShowMessage("【メフィスト】")
    ShowMessage("エネルギー収支の劣悪さや、生殖能力の低さ……")
    ShowMessage("また精神異常や魔力暴走など、非常に不安定だったのです。")
    0()
   EndIf()
   If(0,5,0)
    ShowMessageFace("iriasu_fc4",7,0,2,73)
    ShowMessage("【イリアス】")
    ShowMessage("メフィスト、あなたも聞いているのですね。")
    ShowMessage("ヒト古種には様々な欠陥があり、生物として極めて不安定だったと……")
    ShowMessageFace("mefist_fc1",0,0,2,74)
    ShowMessage("【メフィスト】")
    ShowMessage("エネルギー収支の劣悪さや、生殖能力の低さ……")
    ShowMessage("また精神異常や魔力暴走など、非常に不安定だったという話ですね。")
    0()
   EndIf()
   ShowMessageFace("mefist_fc1",0,0,2,75)
   ShowMessage("【メフィスト】")
   ShowMessage("単体戦力は凄まじかったものの、生物としては欠陥品でした。")
   ShowMessage("創世の女神が、ヒト古種を失敗作と断じたのも当然です。")
   ShowMessageFace("ruka_fc1",0,0,2,76)
   ShowMessage("【ルカ】")
   ShowMessage("じゃあ、今のグランゴルド王は……")
   ShowMessageFace("mefist_fc1",0,0,2,77)
   ShowMessage("【メフィスト】")
   ShowMessage("理性も情緒も保てていない、悪魔的な生体兵器……")
   ShowMessage("王妃は、そんな怪物を作り上げてしまったのですよ。")
   If(0,6,0)
    ShowMessageFace("sonia_fc2",2,0,2,78)
    ShowMessage("【ソニア】")
    ShowMessage("そんなの、グランゴルド王も被害者じゃない……！")
    0()
   Else()
    ShowMessageFace("ruka_fc1",0,0,2,79)
    ShowMessage("【ルカ】")
    ShowMessage("それじゃあ、グランゴルド王も被害者じゃないか……！")
    0()
   EndIf()
   ShowMessageFace("mefist_fc1",0,0,2,80)
   ShowMessage("【メフィスト】")
   ShowMessage("ええ……しかし、覚悟を決めなければいけません。")
   ShowMessage("王妃を討つ以上、王も確実に敵に回るでしょう。")
   If(0,4,0)
    ShowMessageFace("alice_fc5",0,0,2,81)
    ShowMessage("【アリス】")
    ShowMessage("しかし、クィーンアントがそこまでの施術を行うなど……")
    ShowMessage("どうにも、引っ掛かるな……")
    0()
   EndIf()
   If(0,5,0)
    ShowMessageFace("iriasu_fc4",2,0,2,82)
    ShowMessage("【イリアス】")
    ShowMessage("しかし、クィーンアントがそこまでの施術を施すなど……")
    ShowMessage("どこか収まりの悪い話ですね……")
    0()
   EndIf()
   ShowMessageFace("ruka_fc1",0,0,2,83)
   ShowMessage("【ルカ】")
   ShowMessage("……………………")
   ShowMessageFace("",0,0,2,84)
   ShowMessage("ともかく、王家の血脈を覚醒させた魔導王と戦う可能性は十分にあるのだ。")
   ShowMessage("これからの決戦、生半可な覚悟では戦い抜く事はできない――")
   0()
  404()
  0()



EVENT   26
 PAGE   1
  ShowMessageFace("undine_fc1",1,0,2,1)
  ShowMessage("【ウンディーネ】")
  ShowMessage("こういうのも、たまには悪くないわね……")
  ShowMessage("魚でも捕まえてみようかしら。")
  ShowMessageFace("undine_fc1",1,0,2,2)
  ShowMessage("【ウンディーネ】")
  ShowMessage("ブーメラン♪　ブーメラン……♪")
  ShowMessage("……冗談よ。")
  0()

EVENT   27
 PAGE   1
  // condition: switch 1202 is ON
  ShowMessageFace("bonny_fc1",0,0,2,1)
  ShowMessage("【ボニー】")
  ShowMessage("しばらくは陸だから、泳ぎの練習もしなくていいな！")
  ShowMessage("でも、浮き輪がないと陸でも不安になるのだ……")
  0()



EVENT   28
 PAGE   1
  // condition: switch 1201 is ON
  ShowMessageFace("ashel_fc1",1,0,2,1)
  ShowMessage("【アシェル】")
  ShowMessage("グランゴルドじゃ、金目のものをたっぷり頂こうか。")
  ShowMessage("これだけ手間かかってんだ、それくらい罰は当たらないだろ？")
  0()



EVENT   29
 PAGE   1
  // condition: switch 1203 is ON
  ShowMessageFace("tatunoko_k_fc1",2,0,2,1)
  ShowMessage("【たつこ】")
  ShowMessage("海が恋しいのです……")
  ShowMessageFace("tatunoko_k_fc1",1,0,2,2)
  ShowMessage("【たつこ】")
  ShowMessage("でも、みんなで旅するのも楽しいのです！")
  ShowMessage("海兵仲間達に、後でいっぱい自慢するのです！")
  0()


